timestep_time,vehicle_CO,vehicle_CO2,vehicle_HC,vehicle_NOx,vehicle_PMx,vehicle_angle,vehicle_eclass,vehicle_electricity,vehicle_fuel,vehicle_id,vehicle_lane,vehicle_noise,vehicle_pos,vehicle_route,vehicle_speed,vehicle_type,vehicle_waiting,vehicle_x,vehicle_y
1.0,164.78,2624.72,0.81,1.2,0.07,271.07,HBEFA3/PC_G_EU4,0.0,1.13,veh3,5337487#3_0,55.94,5.1,!veh3!var#1,0.0,veh_passenger,0.0,23726.22,25284.67
2.0,148.12,2942.26,0.74,1.32,0.07,271.09,HBEFA3/PC_G_EU4,0.0,1.26,veh3,5337487#3_0,62.42,6.46,!veh3!var#1,1.36,veh_passenger,0.0,23724.87,25284.69
3.0,134.43,3441.38,0.69,1.51,0.07,271.1,HBEFA3/PC_G_EU4,0.0,1.48,veh3,5337487#3_0,63.69,9.32,!veh3!var#1,2.86,veh_passenger,0.0,23722.0,25284.75
4.0,121.5,3852.58,0.64,1.67,0.08,271.1,HBEFA3/PC_G_EU4,0.0,1.66,veh3,5337487#3_0,64.11,13.64,!veh3!var#1,4.32,veh_passenger,0.0,23717.68,25284.83
5.0,146.4,6672.76,0.83,2.93,0.14,271.1,HBEFA3/PC_G_EU4,0.0,2.87,veh3,5337487#3_0,69.98,20.51,!veh3!var#1,6.87,veh_passenger,0.0,23710.81,25284.96
6.0,127.88,6880.4,0.75,2.97,0.14,271.1,HBEFA3/PC_G_EU4,0.0,2.96,veh3,5337487#3_0,68.83,29.44,!veh3!var#1,8.93,veh_passenger,0.0,23701.89,25285.13
7.0,155.57,9305.08,0.93,4.06,0.2,271.1,HBEFA3/PC_G_EU4,0.0,4.0,veh3,5337487#3_0,71.49,40.78,!veh3!var#1,11.34,veh_passenger,0.0,23690.55,25285.35
8.0,178.99,11307.68,1.09,4.94,0.25,271.1,HBEFA3/PC_G_EU4,0.0,4.86,veh3,5337487#3_0,73.01,54.61,!veh3!var#1,13.83,veh_passenger,0.0,23676.72,25285.61
9.0,32.26,4330.46,0.25,1.63,0.06,271.1,HBEFA3/PC_G_EU4,0.0,1.86,veh3,5337487#3_0,66.22,68.97,!veh3!var#1,14.35,veh_passenger,0.0,23662.36,25285.89
10.0,0.0,0.0,0.0,0.0,0.0,271.1,HBEFA3/PC_G_EU4,0.0,0.0,veh3,5337487#3_0,63.86,82.95,!veh3!var#1,13.98,veh_passenger,0.0,23648.38,25286.15
11.0,30.77,4294.63,0.24,1.61,0.06,271.1,HBEFA3/PC_G_EU4,0.0,1.85,veh3,5337487#3_0,66.25,97.44,!veh3!var#1,14.49,veh_passenger,0.0,23633.9,25286.43
12.0,0.0,0.0,0.0,0.0,0.0,271.1,HBEFA3/PC_G_EU4,0.0,0.0,veh3,5337487#3_0,63.21,111.26,!veh3!var#1,13.82,veh_passenger,0.0,23620.08,25286.7
13.0,0.0,0.0,0.0,0.0,0.0,271.1,HBEFA3/PC_G_EU4,0.0,0.0,veh3,5337487#3_0,56.14,120.58,!veh3!var#1,9.32,veh_passenger,0.0,23610.76,25286.87
14.0,0.0,0.0,0.0,0.0,0.0,271.1,HBEFA3/PC_G_EU4,0.0,0.0,veh3,5337487#3_0,49.22,125.79,!veh3!var#1,5.21,veh_passenger,0.0,23605.55,25286.97
15.0,121.88,5618.88,0.69,2.43,0.11,270.96,HBEFA3/PC_G_EU4,0.0,2.42,veh3,:38014814_4_0,67.29,5.77,!veh3!var#1,7.11,veh_passenger,0.0,23598.44,25287.1
16.0,98.98,5282.24,0.57,2.23,0.1,270.96,HBEFA3/PC_G_EU4,0.0,2.27,veh3,:38014814_4_0,66.06,14.31,!veh3!var#1,8.54,veh_passenger,0.0,23589.9,25287.24
17.0,165.45,9703.87,0.99,4.25,0.21,270.9,HBEFA3/PC_G_EU4,0.0,4.17,veh3,5337487#6_0,72.17,11.1,!veh3!var#1,11.14,veh_passenger,0.0,23578.76,25287.42
18.0,142.36,9330.46,0.87,4.02,0.19,270.9,HBEFA3/PC_G_EU4,0.0,4.01,veh3,5337487#6_0,70.91,24.3,!veh3!var#1,13.19,veh_passenger,0.0,23565.57,25287.63
19.0,84.88,6897.79,0.55,2.84,0.13,270.9,HBEFA3/PC_G_EU4,0.0,2.97,veh3,5337487#6_0,68.38,38.69,!veh3!var#1,14.4,veh_passenger,0.0,23551.17,25287.85
20.0,0.0,0.0,0.0,0.0,0.0,270.9,HBEFA3/PC_G_EU4,0.0,0.0,veh3,5337487#6_0,62.74,52.25,!veh3!var#1,13.56,veh_passenger,0.0,23537.62,25288.07
21.0,44.77,4905.74,0.32,1.91,0.08,270.9,HBEFA3/PC_G_EU4,0.0,2.11,veh3,5337487#6_0,66.62,66.49,!veh3!var#1,14.24,veh_passenger,0.0,23523.38,25288.29
22.0,0.0,0.0,0.0,0.0,0.0,270.9,HBEFA3/PC_G_EU4,0.0,0.0,veh3,5337487#6_0,63.24,80.15,!veh3!var#1,13.66,veh_passenger,0.0,23509.72,25288.51
23.0,11.94,3215.35,0.13,1.12,0.03,270.9,HBEFA3/PC_G_EU4,0.0,1.38,veh3,5337487#6_0,65.17,94.06,!veh3!var#1,13.91,veh_passenger,0.0,23495.82,25288.73
24.0,8.98,3132.62,0.11,1.07,0.03,270.9,HBEFA3/PC_G_EU4,0.0,1.35,veh3,5337487#6_0,65.23,108.17,!veh3!var#1,14.12,veh_passenger,0.0,23481.7,25288.95
25.0,0.0,0.0,0.0,0.0,0.0,270.9,HBEFA3/PC_G_EU4,0.0,0.0,veh3,5337487#6_0,64.71,122.28,!veh3!var#1,14.11,veh_passenger,0.0,23467.6,25289.17
26.0,0.0,0.0,0.0,0.0,0.0,270.87,HBEFA3/PC_G_EU4,0.0,0.0,veh3,:37977514_5_0,62.82,9.74,!veh3!var#1,13.4,veh_passenger,0.0,23454.2,25289.38
27.0,52.43,5262.51,0.36,2.08,0.09,270.83,HBEFA3/PC_G_EU4,0.0,2.26,veh3,5337487#8_0,66.89,9.48,!veh3!var#1,14.18,veh_passenger,0.0,23440.01,25289.59
28.0,0.0,0.0,0.0,0.0,0.0,270.83,HBEFA3/PC_G_EU4,0.0,0.0,veh3,5337487#8_0,63.9,23.35,!veh3!var#1,13.88,veh_passenger,0.0,23426.14,25289.79
29.0,0.0,0.0,0.0,0.0,0.0,270.83,HBEFA3/PC_G_EU4,0.0,0.0,veh3,5337487#8_0,62.93,36.64,!veh3!var#1,13.29,veh_passenger,0.0,23412.85,25289.98
30.0,29.26,4012.68,0.23,1.5,0.06,270.83,HBEFA3/PC_G_EU4,0.0,1.72,veh3,5337487#8_0,65.69,50.4,!veh3!var#1,13.76,veh_passenger,0.0,23399.09,25290.18
31.0,0.0,0.0,0.0,0.0,0.0,270.83,HBEFA3/PC_G_EU4,0.0,0.0,veh3,5337487#8_0,63.82,63.93,!veh3!var#1,13.53,veh_passenger,0.0,23385.56,25290.38
32.0,44.82,4902.54,0.32,1.91,0.08,270.83,HBEFA3/PC_G_EU4,0.0,2.11,veh3,5337487#8_0,66.6,78.15,!veh3!var#1,14.22,veh_passenger,0.0,23371.34,25290.59
33.0,0.0,0.0,0.0,0.0,0.0,270.83,HBEFA3/PC_G_EU4,0.0,0.0,veh3,5337487#8_0,62.57,91.52,!veh3!var#1,13.37,veh_passenger,0.0,23357.98,25290.78
34.0,73.87,6370.79,0.49,2.59,0.12,270.83,HBEFA3/PC_G_EU4,0.0,2.74,veh3,5337487#8_0,67.91,105.94,!veh3!var#1,14.43,veh_passenger,0.0,23343.56,25290.99
35.0,0.0,0.0,0.0,0.0,0.0,270.83,HBEFA3/PC_G_EU4,0.0,0.0,veh3,:38073093_5_0,61.54,0.09,!veh3!var#1,12.99,veh_passenger,0.0,23330.56,25291.18
36.0,0.0,0.0,0.0,0.0,0.0,270.56,HBEFA3/PC_G_EU4,0.0,0.0,veh3,:38073093_5_0,55.7,9.04,!veh3!var#1,8.95,veh_passenger,0.0,23321.61,25291.27
37.0,0.0,0.0,0.0,0.0,0.0,270.56,HBEFA3/PC_G_EU4,0.0,0.0,veh3,:38073093_5_0,47.3,13.49,!veh3!var#1,4.45,veh_passenger,0.0,23317.16,25291.31
38.0,142.73,6513.26,0.81,2.85,0.14,270.8,HBEFA3/PC_G_EU4,0.0,2.8,veh3,:38073097_5_0,69.56,5.84,!veh3!var#1,6.9,veh_passenger,0.0,23310.26,25291.4
39.0,141.34,7679.03,0.83,3.34,0.16,270.87,HBEFA3/PC_G_EU4,0.0,3.3,veh3,5337487#10_0,70.08,0.67,!veh3!var#1,9.22,veh_passenger,0.0,23301.03,25291.54
40.0,145.83,8881.72,0.88,3.85,0.19,271.35,HBEFA3/PC_G_EU4,0.0,3.82,veh3,5337487#10_0,70.84,12.14,!veh3!var#1,11.47,veh_passenger,0.0,23289.57,25291.81
41.0,120.56,8277.09,0.75,3.52,0.17,271.35,HBEFA3/PC_G_EU4,0.0,3.56,veh3,5337487#10_0,69.71,25.35,!veh3!var#1,13.21,veh_passenger,0.0,23276.36,25292.12
42.0,21.42,3574.39,0.18,1.29,0.04,271.35,HBEFA3/PC_G_EU4,0.0,1.54,veh3,5337487#10_0,65.26,38.92,!veh3!var#1,13.57,veh_passenger,0.0,23262.79,25292.44
43.0,0.0,0.0,0.0,0.0,0.0,271.35,HBEFA3/PC_G_EU4,0.0,0.0,veh3,5337487#10_0,63.44,52.18,!veh3!var#1,13.26,veh_passenger,0.0,23249.53,25292.75
44.0,5.03,2720.93,0.08,0.9,0.02,271.35,HBEFA3/PC_G_EU4,0.0,1.17,veh3,5337487#10_0,64.51,65.56,!veh3!var#1,13.38,veh_passenger,0.0,23236.15,25293.07
45.0,48.69,5062.59,0.34,1.98,0.08,271.35,HBEFA3/PC_G_EU4,0.0,2.18,veh3,5337487#10_0,66.7,79.68,!veh3!var#1,14.12,veh_passenger,0.0,23222.04,25293.4
46.0,0.0,0.0,0.0,0.0,0.0,271.35,HBEFA3/PC_G_EU4,0.0,0.0,veh3,5337487#10_0,64.59,93.76,!veh3!var#1,14.07,veh_passenger,0.0,23207.97,25293.73
47.0,1.12,2769.82,0.07,0.9,0.02,271.35,HBEFA3/PC_G_EU4,0.0,1.19,veh3,5337487#10_0,65.03,107.94,!veh3!var#1,14.18,veh_passenger,0.0,23193.79,25294.07
48.0,0.0,2734.03,0.06,0.88,0.02,271.43,HBEFA3/PC_G_EU4,0.0,1.18,veh3,:38073100_5_0,65.06,3.7,!veh3!var#1,14.28,veh_passenger,0.0,23179.51,25294.41
49.0,0.0,0.0,0.0,0.0,0.0,271.51,HBEFA3/PC_G_EU4,0.0,0.0,veh3,5337487#11_0,63.57,2.96,!veh3!var#1,13.82,veh_passenger,0.0,23165.7,25294.77
50.0,12.42,3287.69,0.13,1.15,0.04,271.55,HBEFA3/PC_G_EU4,0.0,1.41,veh3,5337487#11_0,65.32,17.03,!veh3!var#1,14.07,veh_passenger,0.0,23151.63,25295.15
51.0,0.0,0.0,0.0,0.0,0.0,271.55,HBEFA3/PC_G_EU4,0.0,0.0,veh3,5337487#11_0,63.71,30.76,!veh3!var#1,13.73,veh_passenger,0.0,23137.9,25295.52
52.0,23.0,3815.56,0.19,1.39,0.05,271.55,HBEFA3/PC_G_EU4,0.0,1.64,veh3,5337487#11_0,65.72,44.88,!veh3!var#1,14.12,veh_passenger,0.0,23123.78,25295.9
53.0,0.0,0.0,0.0,0.0,0.0,271.55,HBEFA3/PC_G_EU4,0.0,0.0,veh3,5337487#11_0,64.54,58.94,!veh3!var#1,14.06,veh_passenger,0.0,23109.73,25296.28
54.0,0.0,0.0,0.0,0.0,0.0,271.55,HBEFA3/PC_G_EU4,0.0,0.0,veh3,5337487#11_0,62.72,72.26,!veh3!var#1,13.33,veh_passenger,0.0,23096.41,25296.65
55.0,0.0,0.0,0.0,0.0,0.0,271.55,HBEFA3/PC_G_EU4,0.0,0.0,veh3,5337487#11_0,61.92,84.78,!veh3!var#1,12.52,veh_passenger,0.0,23083.9,25296.98
56.0,0.0,0.0,0.0,0.0,0.0,271.55,HBEFA3/PC_G_EU4,0.0,0.0,veh3,5337487#11_0,55.41,93.49,!veh3!var#1,8.71,veh_passenger,0.0,23075.19,25297.22
57.0,0.0,0.0,0.0,0.0,0.0,302.0,HBEFA3/PC_G_EU4,0.0,0.0,veh3,:38051473_4_0,52.68,5.91,!veh3!var#1,6.28,veh_passenger,0.0,23069.91,25299.89
58.0,66.55,2624.18,0.36,1.03,0.04,357.31,HBEFA3/PC_G_EU4,0.0,1.13,veh3,-5335766#0_0,60.48,3.25,!veh3!var#1,6.58,veh_passenger,0.0,23069.16,25306.34
59.0,98.07,4927.39,0.56,2.08,0.09,0.16,HBEFA3/PC_G_EU4,0.0,2.12,veh3,-5335766#0_0,65.49,11.2,!veh3!var#1,7.95,veh_passenger,0.0,23069.18,25314.29
60.0,148.1,8515.59,0.88,3.71,0.18,0.16,HBEFA3/PC_G_EU4,0.0,3.66,veh3,-5335766#0_0,70.83,21.52,!veh3!var#1,10.33,veh_passenger,0.0,23069.21,25324.61
61.0,128.7,8342.73,0.79,3.58,0.17,0.16,HBEFA3/PC_G_EU4,0.0,3.59,veh3,-5335766#0_0,69.91,33.77,!veh3!var#1,12.25,veh_passenger,0.0,23069.24,25336.86
62.0,99.58,7402.79,0.63,3.1,0.14,0.16,HBEFA3/PC_G_EU4,0.0,3.18,veh3,-5335766#0_0,68.77,47.44,!veh3!var#1,13.67,veh_passenger,0.0,23069.28,25350.53
63.0,56.51,5549.57,0.39,2.2,0.09,0.16,HBEFA3/PC_G_EU4,0.0,2.39,veh3,-5335766#0_0,67.24,61.95,!veh3!var#1,14.51,veh_passenger,0.0,23069.32,25365.04
64.0,0.0,0.0,0.0,0.0,0.0,0.16,HBEFA3/PC_G_EU4,0.0,0.0,veh3,-5335766#0_0,63.75,76.0,!veh3!var#1,14.05,veh_passenger,0.0,23069.36,25379.09
65.0,0.0,0.0,0.0,0.0,0.0,0.16,HBEFA3/PC_G_EU4,0.0,0.0,veh3,-5335766#0_0,62.74,89.33,!veh3!var#1,13.33,veh_passenger,0.0,23069.39,25392.42
66.0,0.0,0.0,0.0,0.0,0.0,0.16,HBEFA3/PC_G_EU4,0.0,0.0,veh3,-5335766#0_0,64.12,102.64,!veh3!var#1,13.31,veh_passenger,0.0,23069.43,25405.73
67.0,28.83,3997.92,0.22,1.49,0.06,0.16,HBEFA3/PC_G_EU4,0.0,1.72,veh3,-5335766#0_0,65.69,116.42,!veh3!var#1,13.78,veh_passenger,0.0,23069.47,25419.51
68.0,32.86,4346.45,0.25,1.64,0.06,0.16,HBEFA3/PC_G_EU4,0.0,1.87,veh3,-5335766#0_0,66.21,130.72,!veh3!var#1,14.31,veh_passenger,0.0,23069.5,25433.81
69.0,0.0,0.0,0.0,0.0,0.0,0.16,HBEFA3/PC_G_EU4,0.0,0.0,veh3,-5335766#0_0,62.2,143.98,!veh3!var#1,13.26,veh_passenger,0.0,23069.54,25447.07
70.0,85.17,6929.53,0.55,2.86,0.13,0.16,HBEFA3/PC_G_EU4,0.0,2.98,veh3,-5335766#0_0,68.42,158.44,!veh3!var#1,14.46,veh_passenger,0.0,23069.58,25461.53
71.0,0.0,0.0,0.0,0.0,0.0,0.16,HBEFA3/PC_G_EU4,0.0,0.0,veh3,-5335766#0_0,64.27,172.66,!veh3!var#1,14.21,veh_passenger,0.0,23069.62,25475.75
72.0,3.55,2938.51,0.08,0.98,0.03,0.16,HBEFA3/PC_G_EU4,0.0,1.26,veh3,-5335766#0_0,65.25,187.02,!veh3!var#1,14.36,veh_passenger,0.0,23069.66,25490.11
73.0,0.0,2706.46,0.05,0.86,0.02,0.1,HBEFA3/PC_G_EU4,0.0,1.16,veh3,-5335766#0_0,65.15,201.47,!veh3!var#1,14.45,veh_passenger,0.0,23069.69,25504.56
74.0,0.0,0.0,0.0,0.0,0.0,0.1,HBEFA3/PC_G_EU4,0.0,0.0,veh3,-5335766#0_0,58.89,212.8,!veh3!var#1,11.33,veh_passenger,0.0,23069.71,25515.89
75.0,0.0,0.0,0.0,0.0,0.0,0.1,HBEFA3/PC_G_EU4,0.0,0.0,veh3,-5335766#0_0,54.13,220.6,!veh3!var#1,7.8,veh_passenger,0.0,23069.72,25523.69
76.0,0.0,0.0,0.0,0.0,0.0,0.1,HBEFA3/PC_G_EU4,0.0,0.0,veh3,-5335766#0_0,45.52,224.25,!veh3!var#1,3.65,veh_passenger,0.0,23069.73,25527.34
77.0,0.0,0.0,0.0,0.0,0.0,0.1,HBEFA3/PC_G_EU4,0.0,0.0,veh3,-5335766#0_0,45.96,225.48,!veh3!var#1,1.23,veh_passenger,0.0,23069.73,25528.57
78.0,0.0,0.0,0.0,0.0,0.0,0.1,HBEFA3/PC_G_EU4,0.0,0.0,veh3,-5335766#0_0,51.49,225.68,!veh3!var#1,0.2,veh_passenger,0.0,23069.73,25528.77
79.0,0.0,0.0,0.0,0.0,0.0,0.1,HBEFA3/PC_G_EU4,0.0,0.0,veh3,-5335766#0_0,55.32,225.74,!veh3!var#1,0.06,veh_passenger,1.0,23069.73,25528.83
80.0,0.0,0.0,0.0,0.0,0.0,0.1,HBEFA3/PC_G_EU4,0.0,0.0,veh3,-5335766#0_0,55.87,225.78,!veh3!var#1,0.04,veh_passenger,2.0,23069.73,25528.87
81.0,148.94,2824.48,0.74,1.27,0.06,358.44,HBEFA3/PC_G_EU4,0.0,1.21,veh3,:37976840_4_0,61.32,1.06,!veh3!var#1,1.16,veh_passenger,0.0,23069.59,25530.02
82.0,135.97,3335.58,0.7,1.47,0.07,354.3,HBEFA3/PC_G_EU4,0.0,1.43,veh3,:37976840_4_0,63.39,3.68,!veh3!var#1,2.62,veh_passenger,0.0,23069.23,25532.61
83.0,130.74,4437.76,0.7,1.94,0.09,327.24,HBEFA3/PC_G_EU4,0.0,1.91,veh3,:37976840_4_0,66.12,8.2,!veh3!var#1,4.52,veh_passenger,0.0,23066.68,25536.2
84.0,118.82,4977.42,0.66,2.14,0.1,283.25,HBEFA3/PC_G_EU4,0.0,2.14,veh3,734643299#11_0,66.26,0.26,!veh3!var#1,6.27,veh_passenger,0.0,23060.8,25538.02
85.0,147.21,7725.9,0.86,3.38,0.16,271.4,HBEFA3/PC_G_EU4,0.0,3.32,veh3,734643299#11_0,70.5,9.0,!veh3!var#1,8.74,veh_passenger,0.0,23052.06,25538.23
86.0,130.46,7853.1,0.78,3.38,0.16,271.4,HBEFA3/PC_G_EU4,0.0,3.38,veh3,734643299#11_0,69.64,19.78,!veh3!var#1,10.78,veh_passenger,0.0,23041.29,25538.49
87.0,154.6,9867.42,0.94,4.28,0.21,271.4,HBEFA3/PC_G_EU4,0.0,4.24,veh3,734643299#11_0,71.59,32.79,!veh3!var#1,13.02,veh_passenger,0.0,23028.28,25538.81
88.0,5.83,2680.33,0.09,0.88,0.02,271.44,HBEFA3/PC_G_EU4,0.0,1.15,veh3,734643299#11_0,64.33,45.93,!veh3!var#1,13.14,veh_passenger,0.0,23015.15,25539.14
89.0,34.08,4220.32,0.25,1.6,0.06,271.59,HBEFA3/PC_G_EU4,0.0,1.81,veh3,734643299#11_0,65.82,59.6,!veh3!var#1,13.67,veh_passenger,0.0,23001.49,25539.52
90.0,11.82,3210.96,0.13,1.11,0.03,271.51,HBEFA3/PC_G_EU4,0.0,1.38,veh3,:37972865_5_0,65.17,2.2,!veh3!var#1,13.91,veh_passenger,0.0,22987.68,25539.89
91.0,0.0,0.0,0.0,0.0,0.0,271.38,HBEFA3/PC_G_EU4,0.0,0.0,veh3,734643299#13_0,61.68,0.48,!veh3!var#1,12.77,veh_passenger,0.0,22974.92,25540.2
92.0,34.09,4105.23,0.25,1.55,0.06,271.19,HBEFA3/PC_G_EU4,0.0,1.76,veh3,734643299#14_0,65.56,11.72,!veh3!var#1,13.3,veh_passenger,0.0,22961.62,25540.48
93.0,0.0,0.0,0.0,0.0,0.0,271.19,HBEFA3/PC_G_EU4,0.0,0.0,veh3,734643299#14_0,62.63,24.49,!veh3!var#1,12.77,veh_passenger,0.0,22948.86,25540.75
94.0,46.24,4749.44,0.32,1.85,0.08,271.19,HBEFA3/PC_G_EU4,0.0,2.04,veh3,734643299#14_0,66.18,37.96,!veh3!var#1,13.47,veh_passenger,0.0,22935.39,25541.03
95.0,0.0,0.0,0.0,0.0,0.0,271.19,HBEFA3/PC_G_EU4,0.0,0.0,veh3,734643299#14_0,62.37,50.75,!veh3!var#1,12.79,veh_passenger,0.0,22922.6,25541.3
96.0,66.58,5828.01,0.44,2.35,0.1,271.19,HBEFA3/PC_G_EU4,0.0,2.51,veh3,734643299#14_0,67.25,64.52,!veh3!var#1,13.77,veh_passenger,0.0,22908.84,25541.58
97.0,0.0,0.0,0.0,0.0,0.0,271.19,HBEFA3/PC_G_EU4,0.0,0.0,veh3,734643299#14_0,63.78,78.04,!veh3!var#1,13.53,veh_passenger,0.0,22895.32,25541.87
98.0,0.0,0.0,0.0,0.0,0.0,271.19,HBEFA3/PC_G_EU4,0.0,0.0,veh3,734643299#14_0,64.1,91.5,!veh3!var#1,13.46,veh_passenger,0.0,22881.86,25542.15
99.0,0.0,0.0,0.0,0.0,0.0,271.19,HBEFA3/PC_G_EU4,0.0,0.0,veh3,734643299#14_0,63.81,104.81,!veh3!var#1,13.31,veh_passenger,0.0,22868.56,25542.42
100.0,35.48,4346.67,0.26,1.65,0.06,271.19,HBEFA3/PC_G_EU4,0.0,1.87,veh3,734643299#14_0,66.01,118.67,!veh3!var#1,13.86,veh_passenger,0.0,22854.7,25542.71
101.0,0.0,0.0,0.0,0.0,0.0,271.19,HBEFA3/PC_G_EU4,0.0,0.0,veh3,734643299#14_0,61.95,131.54,!veh3!var#1,12.87,veh_passenger,0.0,22841.83,25542.98
102.0,31.97,4023.97,0.24,1.51,0.06,271.14,HBEFA3/PC_G_EU4,0.0,1.73,veh3,:37976844_5_0,65.52,1.71,!veh3!var#1,13.37,veh_passenger,0.0,22828.56,25543.25
103.0,14.33,3248.94,0.14,1.14,0.04,271.09,HBEFA3/PC_G_EU4,0.0,1.4,veh3,734643299#16_0,65.04,0.88,!veh3!var#1,13.63,veh_passenger,0.0,22814.93,25543.52
104.0,0.0,0.0,0.0,0.0,0.0,270.96,HBEFA3/PC_G_EU4,0.0,0.0,veh3,734643299#17_0,62.71,12.66,!veh3!var#1,13.03,veh_passenger,0.0,22802.0,25543.73
105.0,38.23,4407.16,0.28,1.69,0.07,270.96,HBEFA3/PC_G_EU4,0.0,1.89,veh3,734643299#17_0,65.95,26.29,!veh3!var#1,13.62,veh_passenger,0.0,22788.38,25543.96
106.0,0.0,0.0,0.0,0.0,0.0,270.96,HBEFA3/PC_G_EU4,0.0,0.0,veh3,734643299#17_0,63.24,39.51,!veh3!var#1,13.23,veh_passenger,0.0,22775.15,25544.18
107.0,0.0,0.0,0.0,0.0,0.0,270.96,HBEFA3/PC_G_EU4,0.0,0.0,veh3,734643299#17_0,63.78,52.63,!veh3!var#1,13.12,veh_passenger,0.0,22762.03,25544.4
108.0,5.56,2701.4,0.09,0.89,0.02,270.96,HBEFA3/PC_G_EU4,0.0,1.16,veh3,734643299#17_0,64.41,65.88,!veh3!var#1,13.24,veh_passenger,0.0,22748.79,25544.63
109.0,0.0,0.0,0.0,0.0,0.0,270.96,HBEFA3/PC_G_EU4,0.0,0.0,veh3,734643299#17_0,63.64,78.96,!veh3!var#1,13.09,veh_passenger,0.0,22735.71,25544.84
110.0,0.0,0.0,0.0,0.0,0.0,270.96,HBEFA3/PC_G_EU4,0.0,0.0,veh3,734643299#17_0,63.03,91.73,!veh3!var#1,12.77,veh_passenger,0.0,22722.94,25545.06
111.0,85.07,6790.83,0.55,2.8,0.13,270.96,HBEFA3/PC_G_EU4,0.0,2.92,veh3,734643299#17_0,68.21,105.71,!veh3!var#1,13.98,veh_passenger,0.0,22708.96,25545.29
112.0,0.0,0.0,0.0,0.0,0.0,270.96,HBEFA3/PC_G_EU4,0.0,0.0,veh3,734643299#17_0,63.25,119.2,!veh3!var#1,13.49,veh_passenger,0.0,22695.47,25545.52
113.0,0.0,0.0,0.0,0.0,0.0,270.96,HBEFA3/PC_G_EU4,0.0,0.0,veh3,734643299#17_0,62.62,132.1,!veh3!var#1,12.9,veh_passenger,0.0,22682.57,25545.74
114.0,0.0,0.0,0.0,0.0,0.0,270.96,HBEFA3/PC_G_EU4,0.0,0.0,veh3,734643299#17_0,54.82,140.51,!veh3!var#1,8.4,veh_passenger,0.0,22674.17,25545.88
115.0,0.0,0.0,0.0,0.0,0.0,270.95,HBEFA3/PC_G_EU4,0.0,0.0,veh3,734643299#18_0,47.25,0.47,!veh3!var#1,4.32,veh_passenger,0.0,22669.95,25545.95
116.0,127.72,5451.03,0.71,2.37,0.11,270.63,HBEFA3/PC_G_EU4,0.0,2.34,veh3,:37973959_5_0,67.44,5.46,!veh3!var#1,6.34,veh_passenger,0.0,22663.61,25546.02
117.0,133.56,6953.55,0.77,3.02,0.14,270.63,HBEFA3/PC_G_EU4,0.0,2.99,veh3,:37973959_5_0,69.19,13.98,!veh3!var#1,8.53,veh_passenger,0.0,22655.09,25546.11
118.0,151.44,8928.71,0.9,3.89,0.19,270.31,HBEFA3/PC_G_EU4,0.0,3.84,veh3,734643299#20_0,71.16,6.06,!veh3!var#1,10.91,veh_passenger,0.0,22644.29,25546.17
119.0,154.33,9893.78,0.94,4.29,0.21,270.31,HBEFA3/PC_G_EU4,0.0,4.25,veh3,734643299#20_0,71.58,19.2,!veh3!var#1,13.14,veh_passenger,0.0,22631.15,25546.24
120.0,3.93,2620.04,0.08,0.85,0.02,270.31,HBEFA3/PC_G_EU4,0.0,1.13,veh3,734643299#20_0,64.35,32.44,!veh3!var#1,13.23,veh_passenger,0.0,22617.91,25546.31
121.0,0.0,0.0,0.0,0.0,0.0,270.31,HBEFA3/PC_G_EU4,0.0,0.0,veh3,734643299#20_0,63.44,45.45,!veh3!var#1,13.01,veh_passenger,0.0,22604.9,25546.38
122.0,48.54,4945.6,0.34,1.94,0.08,270.31,HBEFA3/PC_G_EU4,0.0,2.13,veh3,734643299#20_0,66.46,59.19,!veh3!var#1,13.74,veh_passenger,0.0,22591.16,25546.46
123.0,0.0,0.0,0.0,0.0,0.0,270.31,HBEFA3/PC_G_EU4,0.0,0.0,veh3,734643299#20_0,63.8,72.71,!veh3!var#1,13.52,veh_passenger,0.0,22577.64,25546.53
124.0,0.0,0.0,0.0,0.0,0.0,270.28,HBEFA3/PC_G_EU4,0.0,0.0,veh3,:37976847_4_0,63.28,3.96,!veh3!var#1,13.17,veh_passenger,0.0,22564.47,25546.6
125.0,0.0,0.0,0.0,0.0,0.0,270.26,HBEFA3/PC_G_EU4,0.0,0.0,veh3,734643299#21_0,63.05,2.39,!veh3!var#1,12.83,veh_passenger,0.0,22551.64,25546.66
126.0,59.3,5455.85,0.4,2.18,0.09,270.24,HBEFA3/PC_G_EU4,0.0,2.35,veh3,734643299#21_0,66.9,16.09,!veh3!var#1,13.7,veh_passenger,0.0,22537.94,25546.72
127.0,0.0,0.0,0.0,0.0,0.0,270.24,HBEFA3/PC_G_EU4,0.0,0.0,veh3,734643299#21_0,63.76,29.57,!veh3!var#1,13.47,veh_passenger,0.0,22524.46,25546.78
128.0,0.0,0.0,0.0,0.0,0.0,270.24,HBEFA3/PC_G_EU4,0.0,0.0,veh3,734643299#21_0,63.39,42.74,!veh3!var#1,13.18,veh_passenger,0.0,22511.29,25546.83
129.0,40.73,4582.89,0.29,1.76,0.07,270.24,HBEFA3/PC_G_EU4,0.0,1.97,veh3,734643299#21_0,66.17,56.54,!veh3!var#1,13.8,veh_passenger,0.0,22497.49,25546.89
130.0,0.0,0.0,0.0,0.0,0.0,270.24,HBEFA3/PC_G_EU4,0.0,0.0,veh3,734643299#21_0,62.22,69.49,!veh3!var#1,12.95,veh_passenger,0.0,22484.54,25546.95
131.0,13.69,3076.38,0.13,1.07,0.03,270.24,HBEFA3/PC_G_EU4,0.0,1.32,veh3,734643299#21_0,64.66,82.67,!veh3!var#1,13.18,veh_passenger,0.0,22471.36,25547.0
132.0,11.58,3042.5,0.12,1.05,0.03,270.23,HBEFA3/PC_G_EU4,0.0,1.31,veh3,:37976849_5_0,64.75,9.18,!veh3!var#1,13.39,veh_passenger,0.0,22457.96,25547.06
133.0,1.59,2582.0,0.06,0.83,0.02,270.24,HBEFA3/PC_G_EU4,0.0,1.11,veh3,734643299#22_0,64.47,7.86,!veh3!var#1,13.47,veh_passenger,0.0,22444.49,25547.11
134.0,0.0,0.0,0.0,0.0,0.0,270.24,HBEFA3/PC_G_EU4,0.0,0.0,veh3,734643299#22_0,63.7,21.15,!veh3!var#1,13.28,veh_passenger,0.0,22431.21,25547.17
135.0,0.0,0.0,0.0,0.0,0.0,270.24,HBEFA3/PC_G_EU4,0.0,0.0,veh3,734643299#22_0,63.95,34.37,!veh3!var#1,13.22,veh_passenger,0.0,22417.99,25547.23
136.0,0.0,0.0,0.0,0.0,0.0,270.24,HBEFA3/PC_G_EU4,0.0,0.0,veh3,734643299#22_0,62.93,47.19,!veh3!var#1,12.83,veh_passenger,0.0,22405.16,25547.28
137.0,33.24,4077.21,0.25,1.54,0.06,270.24,HBEFA3/PC_G_EU4,0.0,1.75,veh3,734643299#22_0,65.55,60.53,!veh3!var#1,13.34,veh_passenger,0.0,22391.82,25547.34
138.0,37.72,4474.28,0.28,1.71,0.07,270.24,HBEFA3/PC_G_EU4,0.0,1.92,veh3,734643299#22_0,66.14,74.46,!veh3!var#1,13.93,veh_passenger,0.0,22377.9,25547.4
139.0,0.0,0.0,0.0,0.0,0.0,270.22,HBEFA3/PC_G_EU4,0.0,0.0,veh3,:37972382_4_0,63.23,2.92,!veh3!var#1,13.44,veh_passenger,0.0,22364.46,25547.45
140.0,0.0,0.0,0.0,0.0,0.0,270.2,HBEFA3/PC_G_EU4,0.0,0.0,veh3,734643299#23_0,62.43,1.32,!veh3!var#1,12.8,veh_passenger,0.0,22351.66,25547.49
141.0,76.26,6338.21,0.5,2.59,0.12,270.2,HBEFA3/PC_G_EU4,0.0,2.72,veh3,734643299#23_0,67.76,15.22,!veh3!var#1,13.9,veh_passenger,0.0,22337.76,25547.54
142.0,0.0,0.0,0.0,0.0,0.0,270.2,HBEFA3/PC_G_EU4,0.0,0.0,veh3,734643299#23_0,62.57,28.38,!veh3!var#1,13.16,veh_passenger,0.0,22324.6,25547.59
143.0,32.54,4146.52,0.24,1.56,0.06,270.2,HBEFA3/PC_G_EU4,0.0,1.78,veh3,734643299#23_0,65.76,42.06,!veh3!var#1,13.67,veh_passenger,0.0,22310.92,25547.64
144.0,0.0,0.0,0.0,0.0,0.0,270.2,HBEFA3/PC_G_EU4,0.0,0.0,veh3,734643299#23_0,62.11,54.88,!veh3!var#1,12.82,veh_passenger,0.0,22298.1,25547.69
145.0,60.15,5498.89,0.4,2.2,0.09,270.2,HBEFA3/PC_G_EU4,0.0,2.36,veh3,734643299#23_0,66.94,68.59,!veh3!var#1,13.71,veh_passenger,0.0,22284.39,25547.74
146.0,0.0,0.0,0.0,0.0,0.0,270.2,HBEFA3/PC_G_EU4,0.0,0.0,veh3,734643299#23_0,63.5,81.97,!veh3!var#1,13.39,veh_passenger,0.0,22271.01,25547.78
147.0,22.56,3689.61,0.19,1.34,0.05,270.28,HBEFA3/PC_G_EU4,0.0,1.59,veh3,:37976852_5_0,65.45,6.16,!veh3!var#1,13.77,veh_passenger,0.0,22257.24,25547.84
148.0,5.98,2932.76,0.09,0.98,0.03,270.38,HBEFA3/PC_G_EU4,0.0,1.26,veh3,734643299#24_0,64.99,5.68,!veh3!var#1,13.93,veh_passenger,0.0,22243.31,25547.92
149.0,0.0,0.0,0.0,0.0,0.0,270.38,HBEFA3/PC_G_EU4,0.0,0.0,veh3,734643299#24_0,61.92,18.58,!veh3!var#1,12.9,veh_passenger,0.0,22230.41,25548.0
150.0,42.62,4596.63,0.3,1.78,0.07,270.38,HBEFA3/PC_G_EU4,0.0,1.98,veh3,734643299#24_0,66.08,32.12,!veh3!var#1,13.54,veh_passenger,0.0,22216.87,25548.09
151.0,11.14,3136.17,0.12,1.08,0.03,270.38,HBEFA3/PC_G_EU4,0.0,1.35,veh3,734643299#24_0,65.04,45.89,!veh3!var#1,13.77,veh_passenger,0.0,22203.1,25548.18
152.0,0.0,0.0,0.0,0.0,0.0,270.38,HBEFA3/PC_G_EU4,0.0,0.0,veh3,734643299#24_0,63.43,59.29,!veh3!var#1,13.4,veh_passenger,0.0,22189.7,25548.27
153.0,0.0,0.0,0.0,0.0,0.0,270.38,HBEFA3/PC_G_EU4,0.0,0.0,veh3,734643299#24_0,63.73,72.53,!veh3!var#1,13.24,veh_passenger,0.0,22176.46,25548.36
154.0,31.27,4103.25,0.24,1.54,0.06,270.38,HBEFA3/PC_G_EU4,0.0,1.76,veh3,734643299#24_0,65.75,86.26,!veh3!var#1,13.73,veh_passenger,0.0,22162.73,25548.44
155.0,0.0,0.0,0.0,0.0,0.0,270.24,HBEFA3/PC_G_EU4,0.0,0.0,veh3,:37976855_4_0,62.34,12.19,!veh3!var#1,12.96,veh_passenger,0.0,22149.77,25548.5
156.0,0.0,0.0,0.0,0.0,0.0,270.12,HBEFA3/PC_G_EU4,0.0,0.0,veh3,734643299#25_0,63.58,10.65,!veh3!var#1,12.85,veh_passenger,0.0,22136.92,25548.53
157.0,0.0,0.0,0.0,0.0,0.0,270.12,HBEFA3/PC_G_EU4,0.0,0.0,veh3,734643299#25_0,63.82,23.5,!veh3!var#1,12.85,veh_passenger,0.0,22124.07,25548.56
158.0,47.94,4862.61,0.33,1.9,0.08,270.12,HBEFA3/PC_G_EU4,0.0,2.09,veh3,734643299#25_0,66.32,37.06,!veh3!var#1,13.57,veh_passenger,0.0,22110.51,25548.59
159.0,27.28,3993.59,0.22,1.48,0.05,270.12,HBEFA3/PC_G_EU4,0.0,1.72,veh3,734643299#25_0,65.8,51.08,!veh3!var#1,14.02,veh_passenger,0.0,22096.49,25548.62
160.0,0.0,0.0,0.0,0.0,0.0,270.12,HBEFA3/PC_G_EU4,0.0,0.0,veh3,734643299#25_0,63.73,64.78,!veh3!var#1,13.69,veh_passenger,0.0,22082.79,25548.65
161.0,0.0,0.0,0.0,0.0,0.0,270.12,HBEFA3/PC_G_EU4,0.0,0.0,veh3,734643299#25_0,64.02,78.33,!veh3!var#1,13.56,veh_passenger,0.0,22069.24,25548.68
162.0,4.64,2796.47,0.08,0.92,0.02,270.12,HBEFA3/PC_G_EU4,0.0,1.2,veh3,:37976857_5_0,64.75,4.9,!veh3!var#1,13.69,veh_passenger,0.0,22055.55,25548.71
163.0,0.0,0.0,0.0,0.0,0.0,270.07,HBEFA3/PC_G_EU4,0.0,0.0,veh3,734643299#26_0,64.32,4.12,!veh3!var#1,13.65,veh_passenger,0.0,22041.89,25548.73
164.0,0.0,0.0,0.0,0.0,0.0,270.06,HBEFA3/PC_G_EU4,0.0,0.0,veh3,734643299#26_0,64.18,17.7,!veh3!var#1,13.58,veh_passenger,0.0,22028.31,25548.75
165.0,0.0,0.0,0.0,0.0,0.0,270.06,HBEFA3/PC_G_EU4,0.0,0.0,veh3,734643299#26_0,64.35,31.28,!veh3!var#1,13.58,veh_passenger,0.0,22014.73,25548.76
166.0,0.0,0.0,0.0,0.0,0.0,270.06,HBEFA3/PC_G_EU4,0.0,0.0,veh3,734643299#26_0,63.78,44.67,!veh3!var#1,13.39,veh_passenger,0.0,22001.34,25548.78
167.0,0.0,0.0,0.0,0.0,0.0,270.06,HBEFA3/PC_G_EU4,0.0,0.0,veh3,734643299#26_0,62.79,57.56,!veh3!var#1,12.89,veh_passenger,0.0,21988.45,25548.79
168.0,29.49,3900.34,0.22,1.45,0.05,270.06,HBEFA3/PC_G_EU4,0.0,1.68,veh3,734643299#26_0,65.41,70.92,!veh3!var#1,13.36,veh_passenger,0.0,21975.09,25548.8
169.0,0.0,0.0,0.0,0.0,0.0,270.06,HBEFA3/PC_G_EU4,0.0,0.0,veh3,734643299#26_0,63.48,84.04,!veh3!var#1,13.12,veh_passenger,0.0,21961.97,25548.82
170.0,8.44,2854.87,0.1,0.96,0.03,270.04,HBEFA3/PC_G_EU4,0.0,1.23,veh3,:37976859_4_0,64.55,10.32,!veh3!var#1,13.28,veh_passenger,0.0,21948.69,25548.83
171.0,8.65,2920.72,0.11,0.99,0.03,270.02,HBEFA3/PC_G_EU4,0.0,1.26,veh3,734643299#27_0,64.7,9.38,!veh3!var#1,13.46,veh_passenger,0.0,21935.23,25548.83
172.0,0.0,0.0,0.0,0.0,0.0,270.02,HBEFA3/PC_G_EU4,0.0,0.0,veh3,734643299#27_0,63.72,22.66,!veh3!var#1,13.28,veh_passenger,0.0,21921.95,25548.84
173.0,0.0,0.0,0.0,0.0,0.0,270.02,HBEFA3/PC_G_EU4,0.0,0.0,veh3,734643299#27_0,63.65,35.78,!veh3!var#1,13.12,veh_passenger,0.0,21908.83,25548.84
174.0,18.33,3380.71,0.16,1.21,0.04,270.02,HBEFA3/PC_G_EU4,0.0,1.45,veh3,734643299#27_0,65.03,49.21,!veh3!var#1,13.43,veh_passenger,0.0,21895.4,25548.85
175.0,0.46,2533.22,0.06,0.81,0.02,270.02,HBEFA3/PC_G_EU4,0.0,1.09,veh3,734643299#27_0,64.45,62.7,!veh3!var#1,13.49,veh_passenger,0.0,21881.91,25548.85
176.0,0.0,0.0,0.0,0.0,0.0,270.02,HBEFA3/PC_G_EU4,0.0,0.0,veh3,734643299#27_0,64.08,76.13,!veh3!var#1,13.43,veh_passenger,0.0,21868.48,25548.86
177.0,0.0,0.0,0.0,0.0,0.0,270.6,HBEFA3/PC_G_EU4,0.0,0.0,veh3,:37976861_5_0,62.83,7.9,!veh3!var#1,12.94,veh_passenger,0.0,21855.54,25548.94
178.0,34.81,4195.92,0.26,1.59,0.06,271.23,HBEFA3/PC_G_EU4,0.0,1.8,veh3,256998523#0_0,65.71,6.94,!veh3!var#1,13.48,veh_passenger,0.0,21842.07,25549.16
179.0,0.0,0.0,0.0,0.0,0.0,271.23,HBEFA3/PC_G_EU4,0.0,0.0,veh3,256998523#0_0,63.77,20.25,!veh3!var#1,13.31,veh_passenger,0.0,21828.77,25549.45
180.0,32.36,4181.54,0.24,1.58,0.06,269.83,HBEFA3/PC_G_EU4,0.0,1.8,veh3,256998523#0_0,65.86,34.07,!veh3!var#1,13.82,veh_passenger,0.0,21814.95,25549.5
181.0,0.0,0.0,0.0,0.0,0.0,269.83,HBEFA3/PC_G_EU4,0.0,0.0,veh3,256998523#1_0,63.31,0.12,!veh3!var#1,13.39,veh_passenger,0.0,21801.65,25549.46
182.0,0.0,0.0,0.0,0.0,0.0,269.84,HBEFA3/PC_G_EU4,0.0,0.0,veh3,256998523#1_0,63.23,13.18,!veh3!var#1,13.06,veh_passenger,0.0,21788.59,25549.42
183.0,0.0,0.0,0.0,0.0,0.0,269.84,HBEFA3/PC_G_EU4,0.0,0.0,veh3,256998523#1_0,63.55,26.09,!veh3!var#1,12.92,veh_passenger,0.0,21775.68,25549.39
184.0,73.68,6237.19,0.48,2.54,0.11,269.98,HBEFA3/PC_G_EU4,0.0,2.68,veh3,256998523#2_0,67.69,0.96,!veh3!var#1,13.98,veh_passenger,0.0,21761.69,25549.36
185.0,0.0,0.0,0.0,0.0,0.0,270.52,HBEFA3/PC_G_EU4,0.0,0.0,veh3,256998523#2_0,62.42,14.11,!veh3!var#1,13.15,veh_passenger,0.0,21748.54,25549.48
186.0,0.0,0.0,0.0,0.0,0.0,270.47,HBEFA3/PC_G_EU4,0.0,0.0,veh3,:37976866_1_0,63.06,2.92,!veh3!var#1,12.82,veh_passenger,0.0,21735.72,25549.59
187.0,0.0,2289.83,0.05,0.71,0.01,270.41,HBEFA3/PC_G_EU4,0.0,0.98,veh3,256998523#3_0,63.85,1.36,!veh3!var#1,12.83,veh_passenger,0.0,21722.88,25549.69
188.0,41.56,4520.86,0.29,1.74,0.07,270.35,HBEFA3/PC_G_EU4,0.0,1.94,veh3,256998523#3_0,65.98,14.82,!veh3!var#1,13.47,veh_passenger,0.0,21709.42,25549.77
189.0,19.81,3569.43,0.17,1.29,0.04,270.35,HBEFA3/PC_G_EU4,0.0,1.53,veh3,256998523#3_0,65.38,28.63,!veh3!var#1,13.81,veh_passenger,0.0,21695.61,25549.86
190.0,0.0,0.0,0.0,0.0,0.0,270.35,HBEFA3/PC_G_EU4,0.0,0.0,veh3,256998523#3_0,63.89,42.23,!veh3!var#1,13.6,veh_passenger,0.0,21682.01,25549.94
191.0,0.0,0.0,0.0,0.0,0.0,270.53,HBEFA3/PC_G_EU4,0.0,0.0,veh3,256998523#3_0,63.21,55.43,!veh3!var#1,13.2,veh_passenger,0.0,21668.81,25550.04
192.0,0.0,0.0,0.0,0.0,0.0,270.57,HBEFA3/PC_G_EU4,0.0,0.0,veh3,256998523#3_0,62.71,68.17,!veh3!var#1,12.73,veh_passenger,0.0,21656.08,25550.17
193.0,61.0,5516.99,0.41,2.21,0.09,271.56,HBEFA3/PC_G_EU4,0.0,2.37,veh3,256998523#3_0,66.93,81.8,!veh3!var#1,13.63,veh_passenger,0.0,21642.45,25550.54
194.0,0.0,0.0,0.0,0.0,0.0,271.56,HBEFA3/PC_G_EU4,0.0,0.0,veh3,256998523#3_0,63.38,95.09,!veh3!var#1,13.29,veh_passenger,0.0,21629.17,25550.9
195.0,0.0,0.0,0.0,0.0,0.0,271.56,HBEFA3/PC_G_EU4,0.0,0.0,veh3,256998523#3_0,62.8,107.91,!veh3!var#1,12.83,veh_passenger,0.0,21616.35,25551.24
196.0,12.67,2979.77,0.12,1.03,0.03,271.55,HBEFA3/PC_G_EU4,0.0,1.28,veh3,:37976871_1_0,64.5,8.78,!veh3!var#1,13.04,veh_passenger,0.0,21603.31,25551.6
197.0,17.94,3333.13,0.16,1.19,0.04,271.5,HBEFA3/PC_G_EU4,0.0,1.43,veh3,256998523#4_0,64.94,7.72,!veh3!var#1,13.34,veh_passenger,0.0,21589.98,25551.95
198.0,0.0,0.0,0.0,0.0,0.0,271.5,HBEFA3/PC_G_EU4,0.0,0.0,veh3,256998523#4_0,64.13,21.04,!veh3!var#1,13.32,veh_passenger,0.0,21576.66,25552.3
199.0,2.96,2630.9,0.07,0.85,0.02,271.5,HBEFA3/PC_G_EU4,0.0,1.13,veh3,256998523#4_0,64.47,34.45,!veh3!var#1,13.42,veh_passenger,0.0,21563.25,25552.65
200.0,0.0,0.0,0.0,0.0,0.0,271.5,HBEFA3/PC_G_EU4,0.0,0.0,veh3,256998523#4_0,62.52,47.27,!veh3!var#1,12.81,veh_passenger,0.0,21550.44,25552.98
201.0,0.65,2329.09,0.05,0.73,0.01,271.5,HBEFA3/PC_G_EU4,0.0,1.0,veh3,256998523#4_0,63.88,60.1,!veh3!var#1,12.84,veh_passenger,0.0,21537.61,25553.32
202.0,45.48,4729.15,0.32,1.84,0.07,271.5,HBEFA3/PC_G_EU4,0.0,2.03,veh3,256998523#4_0,66.19,73.62,!veh3!var#1,13.52,veh_passenger,0.0,21524.09,25553.67
203.0,23.49,3780.61,0.19,1.38,0.05,271.47,HBEFA3/PC_G_EU4,0.0,1.63,veh3,:37976873_5_0,65.59,8.67,!veh3!var#1,13.92,veh_passenger,0.0,21510.18,25554.03
204.0,0.0,0.0,0.0,0.0,0.0,271.48,HBEFA3/PC_G_EU4,0.0,0.0,veh3,256998523#5_0,64.53,8.13,!veh3!var#1,13.9,veh_passenger,0.0,21496.28,25554.39
205.0,0.0,0.0,0.0,0.0,0.0,271.48,HBEFA3/PC_G_EU4,0.0,0.0,veh3,256998523#5_0,61.89,21.0,!veh3!var#1,12.86,veh_passenger,0.0,21483.42,25554.72
206.0,36.94,4285.8,0.27,1.63,0.06,271.48,HBEFA3/PC_G_EU4,0.0,1.84,veh3,256998523#5_0,65.77,34.43,!veh3!var#1,13.43,veh_passenger,0.0,21469.99,25555.07
207.0,10.5,3067.22,0.12,1.05,0.03,271.48,HBEFA3/PC_G_EU4,0.0,1.32,veh3,256998523#5_0,64.92,48.08,!veh3!var#1,13.64,veh_passenger,0.0,21456.35,25555.42
208.0,0.0,0.0,0.0,0.0,0.0,271.48,HBEFA3/PC_G_EU4,0.0,0.0,veh3,256998523#7_0,63.83,2.95,!veh3!var#1,13.45,veh_passenger,0.0,21443.0,25555.77
209.0,28.55,4026.13,0.22,1.5,0.06,271.47,HBEFA3/PC_G_EU4,0.0,1.73,veh3,256998523#7_0,65.78,16.87,!veh3!var#1,13.92,veh_passenger,0.0,21429.09,25556.12
210.0,0.0,0.0,0.0,0.0,0.0,271.47,HBEFA3/PC_G_EU4,0.0,0.0,veh3,256998523#7_0,61.98,29.79,!veh3!var#1,12.92,veh_passenger,0.0,21416.17,25556.45
211.0,65.74,5822.18,0.44,2.35,0.1,271.47,HBEFA3/PC_G_EU4,0.0,2.5,veh3,256998523#7_0,67.28,43.67,!veh3!var#1,13.88,veh_passenger,0.0,21402.3,25556.81
212.0,0.0,0.0,0.0,0.0,0.0,271.51,HBEFA3/PC_G_EU4,0.0,0.0,veh3,:37976875_1_0,62.9,3.58,!veh3!var#1,13.28,veh_passenger,0.0,21389.02,25557.16
213.0,25.41,3807.64,0.2,1.4,0.05,271.56,HBEFA3/PC_G_EU4,0.0,1.64,veh3,256998523#8_0,65.5,2.68,!veh3!var#1,13.7,veh_passenger,0.0,21375.33,25557.52
214.0,0.0,0.0,0.0,0.0,0.0,271.59,HBEFA3/PC_G_EU4,0.0,0.0,veh3,256998523#8_0,62.83,15.81,!veh3!var#1,13.13,veh_passenger,0.0,21362.21,25557.89
215.0,0.0,0.0,0.0,0.0,0.0,271.59,HBEFA3/PC_G_EU4,0.0,0.0,veh3,256998523#8_0,62.97,28.58,!veh3!var#1,12.77,veh_passenger,0.0,21349.44,25558.24
216.0,19.44,3324.38,0.16,1.19,0.04,271.59,HBEFA3/PC_G_EU4,0.0,1.43,veh3,256998523#8_0,64.8,41.67,!veh3!var#1,13.08,veh_passenger,0.0,21336.36,25558.61
217.0,2.84,2543.1,0.07,0.82,0.02,271.59,HBEFA3/PC_G_EU4,0.0,1.09,veh3,256998523#8_0,64.25,54.83,!veh3!var#1,13.16,veh_passenger,0.0,21323.2,25558.97
218.0,0.0,0.0,0.0,0.0,0.0,271.59,HBEFA3/PC_G_EU4,0.0,0.0,veh3,256998523#8_0,63.7,67.87,!veh3!var#1,13.05,veh_passenger,0.0,21310.16,25559.34
219.0,56.4,5368.67,0.38,2.13,0.09,271.59,HBEFA3/PC_G_EU4,0.0,2.31,veh3,256998523#8_0,66.88,81.76,!veh3!var#1,13.88,veh_passenger,0.0,21296.28,25559.72
220.0,0.0,0.0,0.0,0.0,0.0,271.59,HBEFA3/PC_G_EU4,0.0,0.0,veh3,256998523#8_0,62.71,94.97,!veh3!var#1,13.21,veh_passenger,0.0,21283.08,25560.09
221.0,43.26,4726.05,0.31,1.83,0.07,271.59,HBEFA3/PC_G_EU4,0.0,2.03,veh3,256998523#8_0,66.32,108.83,!veh3!var#1,13.87,veh_passenger,0.0,21269.21,25560.47
222.0,0.0,0.0,0.0,0.0,0.0,271.46,HBEFA3/PC_G_EU4,0.0,0.0,veh3,:37976877_5_0,61.65,3.86,!veh3!var#1,12.74,veh_passenger,0.0,21256.48,25560.82
223.0,89.16,6996.31,0.57,2.9,0.13,271.31,HBEFA3/PC_G_EU4,0.0,3.01,veh3,256998523#9_0,68.41,3.42,!veh3!var#1,14.01,veh_passenger,0.0,21242.47,25561.16
224.0,0.0,0.0,0.0,0.0,0.0,271.26,HBEFA3/PC_G_EU4,0.0,0.0,veh3,256998523#9_0,63.3,16.95,!veh3!var#1,13.53,veh_passenger,0.0,21228.95,25561.45
225.0,0.0,0.0,0.0,0.0,0.0,271.26,HBEFA3/PC_G_EU4,0.0,0.0,veh3,256998523#9_0,63.19,30.09,!veh3!var#1,13.14,veh_passenger,0.0,21215.81,25561.74
226.0,43.48,4717.35,0.31,1.83,0.07,271.26,HBEFA3/PC_G_EU4,0.0,2.03,veh3,256998523#9_0,66.29,43.89,!veh3!var#1,13.8,veh_passenger,0.0,21202.01,25562.04
227.0,0.0,0.0,0.0,0.0,0.0,271.26,HBEFA3/PC_G_EU4,0.0,0.0,veh3,256998523#9_0,63.68,57.41,!veh3!var#1,13.52,veh_passenger,0.0,21188.5,25562.34
228.0,0.0,0.0,0.0,0.0,0.0,271.26,HBEFA3/PC_G_EU4,0.0,0.0,veh3,256998523#9_0,63.28,70.57,!veh3!var#1,13.17,veh_passenger,0.0,21175.33,25562.63
229.0,49.73,5053.47,0.35,1.98,0.08,271.26,HBEFA3/PC_G_EU4,0.0,2.17,veh3,256998523#9_0,66.61,84.49,!veh3!var#1,13.91,veh_passenger,0.0,21161.42,25562.93
230.0,0.0,0.0,0.0,0.0,0.0,271.47,HBEFA3/PC_G_EU4,0.0,0.0,veh3,:37976879_1_0,62.59,11.12,!veh3!var#1,13.18,veh_passenger,0.0,21148.24,25563.27
231.0,0.0,0.0,0.0,0.0,0.0,271.64,HBEFA3/PC_G_EU4,0.0,0.0,veh3,256998523#10_0,63.23,9.61,!veh3!var#1,12.9,veh_passenger,0.0,21135.35,25563.62
232.0,19.05,3346.35,0.16,1.2,0.04,271.64,HBEFA3/PC_G_EU4,0.0,1.44,veh3,256998523#10_0,64.89,22.82,!veh3!var#1,13.21,veh_passenger,0.0,21122.14,25564.0
233.0,0.0,0.0,0.0,0.0,0.0,271.64,HBEFA3/PC_G_EU4,0.0,0.0,veh3,256998523#10_0,63.27,35.76,!veh3!var#1,12.94,veh_passenger,0.0,21109.21,25564.37
234.0,16.69,3233.11,0.15,1.14,0.04,271.64,HBEFA3/PC_G_EU4,0.0,1.39,veh3,256998523#10_0,64.8,48.97,!veh3!var#1,13.21,veh_passenger,0.0,21096.0,25564.75
235.0,43.2,4725.07,0.31,1.83,0.07,271.64,HBEFA3/PC_G_EU4,0.0,2.03,veh3,256998523#10_0,66.32,62.85,!veh3!var#1,13.88,veh_passenger,0.0,21082.13,25565.15
236.0,0.0,0.0,0.0,0.0,0.0,271.64,HBEFA3/PC_G_EU4,0.0,0.0,veh3,256998523#10_0,60.23,74.86,!veh3!var#1,12.01,veh_passenger,0.0,21070.12,25565.49
237.0,0.0,0.0,0.0,0.0,0.0,271.64,HBEFA3/PC_G_EU4,0.0,0.0,veh3,256998523#10_0,53.42,82.37,!veh3!var#1,7.51,veh_passenger,0.0,21062.61,25565.71
238.0,0.0,0.0,0.0,0.0,0.0,271.66,HBEFA3/PC_G_EU4,0.0,0.0,veh3,256998523#10_0,43.37,85.37,!veh3!var#1,3.01,veh_passenger,0.0,21059.6,25565.8
239.0,0.0,0.0,0.0,0.0,0.0,271.66,HBEFA3/PC_G_EU4,0.0,0.0,veh3,256998523#10_0,43.53,85.55,!veh3!var#1,0.17,veh_passenger,0.0,21059.43,25565.8
240.0,0.0,0.0,0.0,0.0,0.0,271.66,HBEFA3/PC_G_EU4,0.0,0.0,veh3,256998523#10_0,55.18,85.55,!veh3!var#1,0.0,veh_passenger,1.0,21059.43,25565.8
241.0,0.0,0.0,0.0,0.0,0.0,271.66,HBEFA3/PC_G_EU4,0.0,0.0,veh3,256998523#10_0,55.94,85.55,!veh3!var#1,0.0,veh_passenger,2.0,21059.43,25565.8
242.0,0.0,0.0,0.0,0.0,0.0,271.66,HBEFA3/PC_G_EU4,0.0,0.0,veh3,256998523#10_0,55.94,85.55,!veh3!var#1,0.0,veh_passenger,3.0,21059.43,25565.8
243.0,164.78,2624.72,0.81,1.2,0.07,271.66,HBEFA3/PC_G_EU4,0.0,1.13,veh3,256998523#10_0,55.94,85.55,!veh3!var#1,0.0,veh_passenger,4.0,21059.43,25565.8
244.0,164.78,2624.72,0.81,1.2,0.07,271.66,HBEFA3/PC_G_EU4,0.0,1.13,veh3,256998523#10_0,55.94,85.55,!veh3!var#1,0.0,veh_passenger,5.0,21059.43,25565.8
245.0,164.78,2624.72,0.81,1.2,0.07,271.66,HBEFA3/PC_G_EU4,0.0,1.13,veh3,256998523#10_0,55.94,85.55,!veh3!var#1,0.0,veh_passenger,6.0,21059.43,25565.8
246.0,164.78,2624.72,0.81,1.2,0.07,271.66,HBEFA3/PC_G_EU4,0.0,1.13,veh3,256998523#10_0,55.94,85.55,!veh3!var#1,0.0,veh_passenger,7.0,21059.43,25565.8
247.0,164.78,2624.72,0.81,1.2,0.07,271.66,HBEFA3/PC_G_EU4,0.0,1.13,veh3,256998523#10_0,55.94,85.55,!veh3!var#1,0.0,veh_passenger,8.0,21059.43,25565.8
248.0,164.78,2624.72,0.81,1.2,0.07,271.66,HBEFA3/PC_G_EU4,0.0,1.13,veh3,256998523#10_0,55.94,85.55,!veh3!var#1,0.0,veh_passenger,9.0,21059.43,25565.8
249.0,164.78,2624.72,0.81,1.2,0.07,271.66,HBEFA3/PC_G_EU4,0.0,1.13,veh3,256998523#10_0,55.94,85.55,!veh3!var#1,0.0,veh_passenger,10.0,21059.43,25565.8
250.0,164.78,2624.72,0.81,1.2,0.07,271.66,HBEFA3/PC_G_EU4,0.0,1.13,veh3,256998523#10_0,55.94,85.55,!veh3!var#1,0.0,veh_passenger,11.0,21059.43,25565.8
251.0,150.97,3965.51,0.78,1.77,0.09,271.7,HBEFA3/PC_G_EU4,0.0,1.7,veh3,:37976883_1_0,67.85,1.49,!veh3!var#1,2.49,veh_passenger,0.0,21056.94,25565.88
252.0,123.64,3659.55,0.65,1.59,0.07,271.75,HBEFA3/PC_G_EU4,0.0,1.57,veh3,:37976883_1_0,63.68,5.38,!veh3!var#1,3.89,veh_passenger,0.0,21053.06,25565.99
253.0,134.86,5659.6,0.75,2.47,0.12,271.75,HBEFA3/PC_G_EU4,0.0,2.43,veh3,:37976883_1_0,68.21,11.49,!veh3!var#1,6.11,veh_passenger,0.0,21046.95,25566.18
254.0,126.67,6422.76,0.73,2.78,0.13,271.9,HBEFA3/PC_G_EU4,0.0,2.76,veh3,478889482#0_0,68.38,4.91,!veh3!var#1,8.15,veh_passenger,0.0,21038.8,25566.44
255.0,130.61,7617.73,0.78,3.29,0.16,275.9,HBEFA3/PC_G_EU4,0.0,3.27,veh3,478889482#0_0,69.49,15.12,!veh3!var#1,10.22,veh_passenger,0.0,21028.62,25567.13
256.0,160.45,10004.33,0.97,4.35,0.21,283.01,HBEFA3/PC_G_EU4,0.0,4.3,veh3,478889482#0_0,71.9,27.71,!veh3!var#1,12.58,veh_passenger,0.0,21016.26,25569.36
257.0,95.96,7309.29,0.61,3.05,0.14,289.53,HBEFA3/PC_G_EU4,0.0,3.14,veh3,478889482#0_0,68.7,41.66,!veh3!var#1,13.95,veh_passenger,0.0,21002.89,25573.28
258.0,0.0,0.0,0.0,0.0,0.0,292.42,HBEFA3/PC_G_EU4,0.0,0.0,veh3,478889482#0_0,63.86,55.35,!veh3!var#1,13.69,veh_passenger,0.0,20990.09,25578.12
259.0,0.0,0.0,0.0,0.0,0.0,289.72,HBEFA3/PC_G_EU4,0.0,0.0,veh3,478889482#0_0,63.77,68.81,!veh3!var#1,13.47,veh_passenger,0.0,20977.56,25583.04
260.0,0.0,0.0,0.0,0.0,0.0,283.42,HBEFA3/PC_G_EU4,0.0,0.0,veh3,478889482#0_0,63.1,81.88,!veh3!var#1,13.07,veh_passenger,0.0,20965.0,25586.58
261.0,5.97,2704.35,0.09,0.89,0.02,280.24,HBEFA3/PC_G_EU4,0.0,1.16,veh3,478889482#0_0,64.38,95.07,!veh3!var#1,13.19,veh_passenger,0.0,20952.05,25589.07
262.0,51.09,5131.98,0.35,2.02,0.08,275.8,HBEFA3/PC_G_EU4,0.0,2.21,veh3,478889482#0_0,66.7,109.02,!veh3!var#1,13.96,veh_passenger,0.0,20938.17,25590.48
263.0,0.0,0.0,0.0,0.0,0.0,271.37,HBEFA3/PC_G_EU4,0.0,0.0,veh3,478889482#0_0,63.26,122.5,!veh3!var#1,13.47,veh_passenger,0.0,20924.71,25591.04
264.0,0.0,0.0,0.0,0.0,0.0,271.41,HBEFA3/PC_G_EU4,0.0,0.0,veh3,478889482#0_0,63.02,135.54,!veh3!var#1,13.04,veh_passenger,0.0,20911.68,25591.36
265.0,0.0,2366.85,0.05,0.74,0.01,271.39,HBEFA3/PC_G_EU4,0.0,1.02,veh3,478889482#0_0,64.06,148.61,!veh3!var#1,13.07,veh_passenger,0.0,20898.61,25591.68
266.0,12.38,3047.87,0.13,1.05,0.03,271.36,HBEFA3/PC_G_EU4,0.0,1.31,veh3,478889482#0_0,64.7,161.9,!veh3!var#1,13.29,veh_passenger,0.0,20885.32,25591.99
267.0,2.4,2590.06,0.07,0.84,0.02,271.43,HBEFA3/PC_G_EU4,0.0,1.11,veh3,:37976908_0_0,64.41,13.07,!veh3!var#1,13.37,veh_passenger,0.0,20871.95,25592.33
268.0,0.0,0.0,0.0,0.0,0.0,271.44,HBEFA3/PC_G_EU4,0.0,0.0,veh3,478889482#7_0,62.7,11.53,!veh3!var#1,12.85,veh_passenger,0.0,20859.1,25592.64
269.0,42.68,4585.87,0.3,1.77,0.07,271.44,HBEFA3/PC_G_EU4,0.0,1.97,veh3,478889482#7_0,66.05,25.03,!veh3!var#1,13.5,veh_passenger,0.0,20845.61,25592.98
270.0,0.0,0.0,0.0,0.0,0.0,271.44,HBEFA3/PC_G_EU4,0.0,0.0,veh3,478889482#7_0,62.4,37.85,!veh3!var#1,12.82,veh_passenger,0.0,20832.79,25593.31
271.0,27.03,3744.98,0.21,1.38,0.05,271.44,HBEFA3/PC_G_EU4,0.0,1.61,veh3,478889482#7_0,65.23,51.1,!veh3!var#1,13.24,veh_passenger,0.0,20819.55,25593.64
272.0,21.1,3568.41,0.18,1.29,0.04,271.44,HBEFA3/PC_G_EU4,0.0,1.53,veh3,478889482#7_0,65.27,64.7,!veh3!var#1,13.6,veh_passenger,0.0,20805.96,25593.98
273.0,23.0,3778.0,0.19,1.38,0.05,271.44,HBEFA3/PC_G_EU4,0.0,1.62,veh3,478889482#7_0,65.63,78.69,!veh3!var#1,13.99,veh_passenger,0.0,20791.97,25594.33
274.0,0.0,0.0,0.0,0.0,0.0,271.44,HBEFA3/PC_G_EU4,0.0,0.0,veh3,478889482#7_0,63.55,92.3,!veh3!var#1,13.61,veh_passenger,0.0,20778.37,25594.68
275.0,23.29,3796.1,0.19,1.39,0.05,271.47,HBEFA3/PC_G_EU4,0.0,1.63,veh3,:37976911_0_0,65.65,7.93,!veh3!var#1,14.01,veh_passenger,0.0,20764.37,25595.03
276.0,0.0,0.0,0.0,0.0,0.0,271.51,HBEFA3/PC_G_EU4,0.0,0.0,veh3,478889482#9_0,62.59,6.77,!veh3!var#1,13.24,veh_passenger,0.0,20751.13,25595.38
277.0,8.94,2921.68,0.11,0.99,0.03,271.51,HBEFA3/PC_G_EU4,0.0,1.26,veh3,478889482#9_0,64.68,20.19,!veh3!var#1,13.42,veh_passenger,0.0,20737.72,25595.73
278.0,0.08,2509.78,0.06,0.79,0.02,271.51,HBEFA3/PC_G_EU4,0.0,1.08,veh3,478889482#9_0,64.42,33.67,!veh3!var#1,13.48,veh_passenger,0.0,20724.24,25596.09
279.0,0.0,2365.36,0.04,0.73,0.01,271.51,HBEFA3/PC_G_EU4,0.0,1.02,veh3,478889482#9_0,64.33,47.16,!veh3!var#1,13.5,veh_passenger,0.0,20710.75,25596.44
280.0,0.0,0.0,0.0,0.0,0.0,271.5,HBEFA3/PC_G_EU4,0.0,0.0,veh3,478889482#9_0,63.7,60.46,!veh3!var#1,13.3,veh_passenger,0.0,20697.46,25596.79
281.0,43.2,4749.26,0.31,1.84,0.07,271.5,HBEFA3/PC_G_EU4,0.0,2.04,veh3,478889482#9_0,66.38,74.42,!veh3!var#1,13.96,veh_passenger,0.0,20683.51,25597.16
282.0,0.0,0.0,0.0,0.0,0.0,271.5,HBEFA3/PC_G_EU4,0.0,0.0,veh3,478889482#9_0,62.97,87.78,!veh3!var#1,13.36,veh_passenger,0.0,20670.15,25597.51
283.0,0.0,0.0,0.0,0.0,0.0,271.5,HBEFA3/PC_G_EU4,0.0,0.0,veh3,:37976913_5_0,62.59,0.46,!veh3!var#1,12.8,veh_passenger,0.0,20657.36,25597.84
284.0,3.54,2480.56,0.07,0.8,0.02,271.5,HBEFA3/PC_G_EU4,0.0,1.07,veh3,:37976913_5_0,64.01,13.33,!veh3!var#1,12.87,veh_passenger,0.0,20644.5,25598.18
285.0,61.41,5579.19,0.41,2.24,0.1,271.5,HBEFA3/PC_G_EU4,0.0,2.4,veh3,734614431#0_0,67.03,12.57,!veh3!var#1,13.77,veh_passenger,0.0,20630.73,25598.53
286.0,0.0,0.0,0.0,0.0,0.0,271.5,HBEFA3/PC_G_EU4,0.0,0.0,veh3,734614431#0_0,62.36,25.56,!veh3!var#1,12.99,veh_passenger,0.0,20617.74,25598.87
287.0,29.11,3911.58,0.22,1.46,0.05,271.35,HBEFA3/PC_G_EU4,0.0,1.68,veh3,734614431#0_0,65.46,39.02,!veh3!var#1,13.45,veh_passenger,0.0,20604.3,25599.2
288.0,0.0,0.0,0.0,0.0,0.0,271.35,HBEFA3/PC_G_EU4,0.0,0.0,veh3,734614431#0_0,62.41,51.81,!veh3!var#1,12.79,veh_passenger,0.0,20591.51,25599.5
289.0,3.6,2480.76,0.07,0.8,0.02,271.35,HBEFA3/PC_G_EU4,0.0,1.07,veh3,734614431#0_0,64.01,64.67,!veh3!var#1,12.86,veh_passenger,0.0,20578.65,25599.8
290.0,72.92,6181.23,0.48,2.52,0.11,271.35,HBEFA3/PC_G_EU4,0.0,2.66,veh3,734614431#0_0,67.62,78.59,!veh3!var#1,13.92,veh_passenger,0.0,20564.74,25600.13
291.0,0.0,0.0,0.0,0.0,0.0,271.35,HBEFA3/PC_G_EU4,0.0,0.0,veh3,734614431#0_0,63.61,92.16,!veh3!var#1,13.58,veh_passenger,0.0,20551.16,25600.45
292.0,0.0,0.0,0.0,0.0,0.0,271.35,HBEFA3/PC_G_EU4,0.0,0.0,veh3,734614431#0_0,62.92,105.24,!veh3!var#1,13.08,veh_passenger,0.0,20538.09,25600.76
293.0,0.0,0.0,0.0,0.0,0.0,271.43,HBEFA3/PC_G_EU4,0.0,0.0,veh3,:37976917_1_0,63.95,10.35,!veh3!var#1,13.06,veh_passenger,0.0,20525.03,25601.08
294.0,0.0,0.0,0.0,0.0,0.0,271.54,HBEFA3/PC_G_EU4,0.0,0.0,veh3,734614431#3_0,63.22,8.75,!veh3!var#1,12.81,veh_passenger,0.0,20512.22,25601.42
295.0,56.66,5311.23,0.38,2.11,0.09,271.54,HBEFA3/PC_G_EU4,0.0,2.28,veh3,734614431#3_0,66.75,22.4,!veh3!var#1,13.65,veh_passenger,0.0,20498.58,25601.78
296.0,0.0,0.0,0.0,0.0,0.0,271.54,HBEFA3/PC_G_EU4,0.0,0.0,veh3,734614431#3_0,64.35,36.04,!veh3!var#1,13.64,veh_passenger,0.0,20484.95,25602.15
297.0,0.0,0.0,0.0,0.0,0.0,271.54,HBEFA3/PC_G_EU4,0.0,0.0,veh3,734614431#3_0,63.19,49.25,!veh3!var#1,13.22,veh_passenger,0.0,20471.74,25602.5
298.0,3.84,2642.53,0.08,0.86,0.02,271.54,HBEFA3/PC_G_EU4,0.0,1.14,veh3,734614431#3_0,64.42,62.57,!veh3!var#1,13.32,veh_passenger,0.0,20458.42,25602.86
299.0,0.0,0.0,0.0,0.0,0.0,271.54,HBEFA3/PC_G_EU4,0.0,0.0,veh3,734614431#3_0,64.13,75.88,!veh3!var#1,13.31,veh_passenger,0.0,20445.12,25603.22
300.0,18.27,3438.71,0.16,1.23,0.04,271.54,HBEFA3/PC_G_EU4,0.0,1.48,veh3,734614431#3_0,65.18,89.5,!veh3!var#1,13.62,veh_passenger,0.0,20431.5,25603.59
301.0,0.0,0.0,0.0,0.0,0.0,271.54,HBEFA3/PC_G_EU4,0.0,0.0,veh3,734614431#3_0,62.08,102.28,!veh3!var#1,12.77,veh_passenger,0.0,20418.73,25603.93
302.0,76.91,6365.37,0.5,2.6,0.12,271.54,HBEFA3/PC_G_EU4,0.0,2.74,veh3,734614431#3_0,67.78,116.16,!veh3!var#1,13.89,veh_passenger,0.0,20404.85,25604.3
303.0,0.0,0.0,0.0,0.0,0.0,271.54,HBEFA3/PC_G_EU4,0.0,0.0,veh3,734614431#3_0,63.85,129.8,!veh3!var#1,13.64,veh_passenger,0.0,20391.22,25604.67
304.0,0.0,2551.27,0.05,0.81,0.02,271.57,HBEFA3/PC_G_EU4,0.0,1.1,veh3,734614431#3_0,64.59,143.51,!veh3!var#1,13.7,veh_passenger,0.0,20377.52,25605.04
305.0,0.0,0.0,0.0,0.0,0.0,271.57,HBEFA3/PC_G_EU4,0.0,0.0,veh3,734614431#3_0,61.84,156.23,!veh3!var#1,12.72,veh_passenger,0.0,20364.8,25605.39
306.0,66.61,5810.27,0.44,2.35,0.1,271.52,HBEFA3/PC_G_EU4,0.0,2.5,veh3,734614431#3_0,67.22,169.93,!veh3!var#1,13.7,veh_passenger,0.0,20351.1,25605.75
307.0,0.0,0.0,0.0,0.0,0.0,271.55,HBEFA3/PC_G_EU4,0.0,0.0,veh3,734614431#3_0,62.97,183.12,!veh3!var#1,13.18,veh_passenger,0.0,20337.92,25606.11
308.0,0.0,0.0,0.0,0.0,0.0,271.55,HBEFA3/PC_G_EU4,0.0,0.0,veh3,734614431#3_0,63.19,196.01,!veh3!var#1,12.89,veh_passenger,0.0,20325.04,25606.46
309.0,48.02,4879.85,0.33,1.91,0.08,271.55,HBEFA3/PC_G_EU4,0.0,2.1,veh3,734614431#3_0,66.35,209.62,!veh3!var#1,13.61,veh_passenger,0.0,20311.43,25606.82
310.0,17.69,3502.42,0.16,1.25,0.04,271.55,HBEFA3/PC_G_EU4,0.0,1.51,veh3,734614431#3_0,65.39,223.55,!veh3!var#1,13.93,veh_passenger,0.0,20297.5,25607.2
311.0,0.0,0.0,0.0,0.0,0.0,271.55,HBEFA3/PC_G_EU4,0.0,0.0,veh3,734614431#3_0,63.64,237.15,!veh3!var#1,13.6,veh_passenger,0.0,20283.91,25607.57
312.0,0.0,0.0,0.0,0.0,0.0,271.55,HBEFA3/PC_G_EU4,0.0,0.0,veh3,734614431#3_0,60.76,249.31,!veh3!var#1,12.16,veh_passenger,0.0,20271.76,25607.9
313.0,0.0,0.0,0.0,0.0,0.0,271.55,HBEFA3/PC_G_EU4,0.0,0.0,veh3,734614431#3_0,53.88,257.08,!veh3!var#1,7.78,veh_passenger,0.0,20263.99,25608.1
314.0,141.77,8088.39,0.84,3.51,0.17,271.53,HBEFA3/PC_G_EU4,0.0,3.48,veh3,:37976919_1_0,70.3,6.16,!veh3!var#1,10.06,veh_passenger,0.0,20253.93,25608.37
315.0,115.86,7554.06,0.71,3.22,0.15,271.53,HBEFA3/PC_G_EU4,0.0,3.25,veh3,256998522#0_0,68.99,3.38,!veh3!var#1,11.8,veh_passenger,0.0,20242.13,25608.69
316.0,126.18,8670.93,0.78,3.7,0.18,271.54,HBEFA3/PC_G_EU4,0.0,3.73,veh3,256998522#0_0,70.11,16.98,!veh3!var#1,13.6,veh_passenger,0.0,20228.54,25609.05
317.0,54.42,5420.49,0.38,2.15,0.09,271.54,HBEFA3/PC_G_EU4,0.0,2.33,veh3,256998522#0_0,67.1,31.38,!veh3!var#1,14.4,veh_passenger,0.0,20214.14,25609.44
318.0,0.0,0.0,0.0,0.0,0.0,271.54,HBEFA3/PC_G_EU4,0.0,0.0,veh3,256998522#0_0,63.87,45.41,!veh3!var#1,14.03,veh_passenger,0.0,20200.12,25609.82
319.0,0.0,0.0,0.0,0.0,0.0,271.54,HBEFA3/PC_G_EU4,0.0,0.0,veh3,256998522#0_0,63.06,58.85,!veh3!var#1,13.44,veh_passenger,0.0,20186.68,25610.18
320.0,46.1,4943.88,0.33,1.93,0.08,271.54,HBEFA3/PC_G_EU4,0.0,2.13,veh3,256998522#0_0,66.61,72.99,!veh3!var#1,14.14,veh_passenger,0.0,20172.55,25610.56
321.0,0.0,0.0,0.0,0.0,0.0,271.54,HBEFA3/PC_G_EU4,0.0,0.0,veh3,256998522#0_0,63.75,86.79,!veh3!var#1,13.79,veh_passenger,0.0,20158.76,25610.93
322.0,0.0,0.0,0.0,0.0,0.0,271.54,HBEFA3/PC_G_EU4,0.0,0.0,veh3,256998522#0_0,63.26,100.14,!veh3!var#1,13.36,veh_passenger,0.0,20145.41,25611.28
323.0,20.08,3550.32,0.17,1.28,0.04,270.84,HBEFA3/PC_G_EU4,0.0,1.53,veh3,256998522#0_0,65.31,113.85,!veh3!var#1,13.7,veh_passenger,0.0,20131.71,25611.49
324.0,26.33,3982.91,0.21,1.47,0.05,270.84,HBEFA3/PC_G_EU4,0.0,1.71,veh3,256998522#0_0,65.85,127.99,!veh3!var#1,14.14,veh_passenger,0.0,20117.57,25611.7
325.0,0.0,0.0,0.0,0.0,0.0,272.44,HBEFA3/PC_G_EU4,0.0,0.0,veh3,:37976922_4_0,62.77,5.06,!veh3!var#1,13.4,veh_passenger,0.0,20104.17,25612.16
326.0,16.74,3388.41,0.15,1.2,0.04,271.61,HBEFA3/PC_G_EU4,0.0,1.46,veh3,256998522#1_0,65.19,4.42,!veh3!var#1,13.7,veh_passenger,0.0,20090.48,25612.67
327.0,0.0,0.0,0.0,0.0,0.0,271.51,HBEFA3/PC_G_EU4,0.0,0.0,veh3,256998522#1_0,63.25,17.7,!veh3!var#1,13.29,veh_passenger,0.0,20077.19,25613.02
328.0,43.65,4770.96,0.31,1.85,0.08,271.51,HBEFA3/PC_G_EU4,0.0,2.05,veh3,256998522#1_0,66.39,31.66,!veh3!var#1,13.96,veh_passenger,0.0,20063.24,25613.38
329.0,21.68,3812.79,0.19,1.39,0.05,271.51,HBEFA3/PC_G_EU4,0.0,1.64,veh3,256998522#1_0,65.83,46.0,!veh3!var#1,14.34,veh_passenger,0.0,20048.9,25613.76
330.0,0.0,0.0,0.0,0.0,0.0,271.51,HBEFA3/PC_G_EU4,0.0,0.0,veh3,256998522#1_0,62.69,59.5,!veh3!var#1,13.5,veh_passenger,0.0,20035.41,25614.11
331.0,62.42,5811.09,0.42,2.33,0.1,271.51,HBEFA3/PC_G_EU4,0.0,2.5,veh3,256998522#1_0,67.43,73.92,!veh3!var#1,14.41,veh_passenger,0.0,20021.0,25614.49
332.0,0.0,0.0,0.0,0.0,0.0,271.51,HBEFA3/PC_G_EU4,0.0,0.0,veh3,256998522#1_0,62.09,87.18,!veh3!var#1,13.27,veh_passenger,0.0,20007.74,25614.84
333.0,44.77,4822.94,0.32,1.87,0.08,271.51,HBEFA3/PC_G_EU4,0.0,2.07,veh3,256998522#1_0,66.43,101.13,!veh3!var#1,13.95,veh_passenger,0.0,19993.8,25615.21
334.0,0.0,0.0,0.0,0.0,0.0,271.51,HBEFA3/PC_G_EU4,0.0,0.0,veh3,256998522#1_0,62.84,114.43,!veh3!var#1,13.3,veh_passenger,0.0,19980.5,25615.56
335.0,36.36,4391.33,0.27,1.67,0.07,271.51,HBEFA3/PC_G_EU4,0.0,1.89,veh3,256998522#1_0,66.05,128.3,!veh3!var#1,13.87,veh_passenger,0.0,19966.63,25615.92
336.0,37.95,4637.4,0.28,1.77,0.07,271.51,HBEFA3/PC_G_EU4,0.0,1.99,veh3,256998522#1_0,66.5,142.77,!veh3!var#1,14.47,veh_passenger,0.0,19952.17,25616.3
337.0,0.0,0.0,0.0,0.0,0.0,271.51,HBEFA3/PC_G_EU4,0.0,0.0,veh3,256998522#1_0,63.57,156.72,!veh3!var#1,13.95,veh_passenger,0.0,19938.22,25616.67
338.0,21.67,3810.61,0.19,1.39,0.05,271.51,HBEFA3/PC_G_EU4,0.0,1.64,veh3,256998522#1_0,65.82,171.06,!veh3!var#1,14.34,veh_passenger,0.0,19923.89,25617.05
339.0,0.0,0.0,0.0,0.0,0.0,271.51,HBEFA3/PC_G_EU4,0.0,0.0,veh3,256998522#1_0,63.08,184.72,!veh3!var#1,13.66,veh_passenger,0.0,19910.24,25617.4
340.0,15.21,3387.03,0.15,1.2,0.04,271.51,HBEFA3/PC_G_EU4,0.0,1.46,veh3,256998522#1_0,65.32,198.67,!veh3!var#1,13.95,veh_passenger,0.0,19896.29,25617.77
341.0,0.0,0.0,0.0,0.0,0.0,271.5,HBEFA3/PC_G_EU4,0.0,0.0,veh3,256998522#1_0,63.55,212.24,!veh3!var#1,13.58,veh_passenger,0.0,19882.72,25618.13
342.0,0.0,0.0,0.0,0.0,0.0,271.5,HBEFA3/PC_G_EU4,0.0,0.0,veh3,256998522#1_0,63.4,225.5,!veh3!var#1,13.25,veh_passenger,0.0,19869.47,25618.48
343.0,4.87,2709.94,0.08,0.89,0.02,271.5,HBEFA3/PC_G_EU4,0.0,1.16,veh3,256998522#1_0,64.5,238.87,!veh3!var#1,13.37,veh_passenger,0.0,19856.1,25618.83
344.0,67.81,6057.96,0.45,2.45,0.11,271.5,HBEFA3/PC_G_EU4,0.0,2.6,veh3,256998522#1_0,67.62,253.23,!veh3!var#1,14.36,veh_passenger,0.0,19841.75,25619.2
345.0,0.0,0.0,0.0,0.0,0.0,271.5,HBEFA3/PC_G_EU4,0.0,0.0,veh3,256998522#1_0,63.02,266.88,!veh3!var#1,13.65,veh_passenger,0.0,19828.1,25619.56
346.0,34.04,4372.34,0.26,1.66,0.06,271.4,HBEFA3/PC_G_EU4,0.0,1.88,veh3,:37976924_1_0,66.18,2.3,!veh3!var#1,14.2,veh_passenger,0.0,19813.91,25619.92
347.0,0.0,2635.02,0.05,0.83,0.02,271.18,HBEFA3/PC_G_EU4,0.0,1.13,veh3,256998522#3_0,64.99,2.18,!veh3!var#1,14.27,veh_passenger,0.0,19799.64,25620.23
348.0,0.0,0.0,0.0,0.0,0.0,271.06,HBEFA3/PC_G_EU4,0.0,0.0,veh3,256998522#3_0,63.78,16.07,!veh3!var#1,13.89,veh_passenger,0.0,19785.75,25620.49
349.0,37.74,4632.47,0.28,1.77,0.07,271.06,HBEFA3/PC_G_EU4,0.0,1.99,veh3,256998522#3_0,66.5,30.56,!veh3!var#1,14.49,veh_passenger,0.0,19771.27,25620.76
350.0,0.0,0.0,0.0,0.0,0.0,271.06,HBEFA3/PC_G_EU4,0.0,0.0,veh3,256998522#3_0,62.2,43.92,!veh3!var#1,13.36,veh_passenger,0.0,19757.91,25621.0
351.0,45.52,4890.15,0.32,1.9,0.08,272.03,HBEFA3/PC_G_EU4,0.0,2.1,veh3,256998522#3_0,66.53,57.97,!veh3!var#1,14.05,veh_passenger,0.0,19743.86,25621.44
352.0,0.0,0.0,0.0,0.0,0.0,272.03,HBEFA3/PC_G_EU4,0.0,0.0,veh3,256998522#3_0,63.58,71.64,!veh3!var#1,13.67,veh_passenger,0.0,19730.21,25621.93
353.0,58.34,5643.41,0.4,2.25,0.1,272.03,HBEFA3/PC_G_EU4,0.0,2.43,veh3,256998522#3_0,67.32,86.16,!veh3!var#1,14.52,veh_passenger,0.0,19715.69,25622.44
354.0,0.0,0.0,0.0,0.0,0.0,271.75,HBEFA3/PC_G_EU4,0.0,0.0,veh3,:37976927_1_0,62.58,5.9,!veh3!var#1,13.56,veh_passenger,0.0,19702.13,25622.89
355.0,60.77,5742.58,0.41,2.3,0.1,271.53,HBEFA3/PC_G_EU4,0.0,2.47,veh3,256998522#4_0,67.38,5.95,!veh3!var#1,14.45,veh_passenger,0.0,19687.68,25623.31
356.0,0.0,0.0,0.0,0.0,0.0,271.53,HBEFA3/PC_G_EU4,0.0,0.0,veh3,256998522#4_0,63.42,19.83,!veh3!var#1,13.88,veh_passenger,0.0,19673.81,25623.68
357.0,0.0,0.0,0.0,0.0,0.0,271.53,HBEFA3/PC_G_EU4,0.0,0.0,veh3,256998522#4_0,63.39,33.3,!veh3!var#1,13.47,veh_passenger,0.0,19660.34,25624.04
358.0,0.0,0.0,0.0,0.0,0.0,271.53,HBEFA3/PC_G_EU4,0.0,0.0,veh3,256998522#4_0,63.55,46.53,!veh3!var#1,13.23,veh_passenger,0.0,19647.12,25624.39
359.0,63.64,5799.98,0.43,2.33,0.1,271.53,HBEFA3/PC_G_EU4,0.0,2.49,veh3,256998522#4_0,67.34,60.69,!veh3!var#1,14.16,veh_passenger,0.0,19632.96,25624.77
360.0,0.0,0.0,0.0,0.0,0.0,271.53,HBEFA3/PC_G_EU4,0.0,0.0,veh3,256998522#4_0,64.2,74.66,!veh3!var#1,13.97,veh_passenger,0.0,19619.0,25625.14
361.0,10.53,3232.19,0.12,1.12,0.03,271.53,HBEFA3/PC_G_EU4,0.0,1.39,veh3,256998522#4_0,65.35,88.86,!veh3!var#1,14.2,veh_passenger,0.0,19604.8,25625.52
362.0,0.0,0.0,0.0,0.0,0.0,271.53,HBEFA3/PC_G_EU4,0.0,0.0,veh3,256998522#4_0,63.73,102.69,!veh3!var#1,13.83,veh_passenger,0.0,19590.98,25625.88
363.0,0.0,0.0,0.0,0.0,0.0,271.53,HBEFA3/PC_G_EU4,0.0,0.0,veh3,256998522#4_0,62.89,115.93,!veh3!var#1,13.24,veh_passenger,0.0,19577.75,25626.24
364.0,77.22,6511.98,0.51,2.66,0.12,271.53,HBEFA3/PC_G_EU4,0.0,2.8,veh3,256998522#4_0,68.02,130.27,!veh3!var#1,14.35,veh_passenger,0.0,19563.41,25626.62
365.0,3.17,2956.02,0.08,0.98,0.03,271.31,HBEFA3/PC_G_EU4,0.0,1.27,veh3,:37976929_1_0,65.33,12.27,!veh3!var#1,14.5,veh_passenger,0.0,19548.91,25626.96
366.0,0.0,0.0,0.0,0.0,0.0,271.03,HBEFA3/PC_G_EU4,0.0,0.0,veh3,256998522#7_0,62.2,11.24,!veh3!var#1,13.37,veh_passenger,0.0,19535.54,25627.22
367.0,59.46,5621.05,0.4,2.24,0.1,271.09,HBEFA3/PC_G_EU4,0.0,2.42,veh3,256998522#7_0,67.21,25.48,!veh3!var#1,14.25,veh_passenger,0.0,19521.3,25627.48
368.0,0.0,0.0,0.0,0.0,0.0,271.09,HBEFA3/PC_G_EU4,0.0,0.0,veh3,256998522#7_0,62.74,38.94,!veh3!var#1,13.46,veh_passenger,0.0,19507.85,25627.74
369.0,32.45,4232.33,0.25,1.6,0.06,271.09,HBEFA3/PC_G_EU4,0.0,1.82,veh3,256998522#7_0,65.97,52.92,!veh3!var#1,13.98,veh_passenger,0.0,19493.87,25628.01
370.0,0.52,2709.29,0.06,0.87,0.02,271.09,HBEFA3/PC_G_EU4,0.0,1.16,veh3,256998522#7_0,64.92,66.99,!veh3!var#1,14.07,veh_passenger,0.0,19479.81,25628.27
371.0,0.0,0.0,0.0,0.0,0.0,271.09,HBEFA3/PC_G_EU4,0.0,0.0,veh3,256998522#7_0,57.53,77.29,!veh3!var#1,10.3,veh_passenger,0.0,19469.5,25628.47
372.0,0.0,0.0,0.0,0.0,0.0,271.09,HBEFA3/PC_G_EU4,0.0,0.0,veh3,256998522#7_0,51.88,83.8,!veh3!var#1,6.5,veh_passenger,0.0,19463.0,25628.59
373.0,117.01,6046.04,0.68,2.59,0.12,271.42,HBEFA3/PC_G_EU4,0.0,2.6,veh3,:37976930_5_0,67.56,5.83,!veh3!var#1,8.33,veh_passenger,0.0,19454.68,25628.78
374.0,127.67,7526.78,0.76,3.24,0.15,271.54,HBEFA3/PC_G_EU4,0.0,3.24,veh3,256998522#10_0,69.3,1.63,!veh3!var#1,10.33,veh_passenger,0.0,19444.36,25629.05
375.0,106.1,7124.56,0.65,3.01,0.14,271.74,HBEFA3/PC_G_EU4,0.0,3.06,veh3,256998522#10_0,68.43,13.55,!veh3!var#1,11.92,veh_passenger,0.0,19432.44,25629.41
376.0,185.58,11796.12,1.13,5.15,0.26,271.74,HBEFA3/PC_G_EU4,0.0,5.07,veh3,256998522#10_0,73.35,27.98,!veh3!var#1,14.42,veh_passenger,0.0,19418.03,25629.85
377.0,0.0,0.0,0.0,0.0,0.0,271.75,HBEFA3/PC_G_EU4,0.0,0.0,veh3,256998522#10_0,62.85,41.6,!veh3!var#1,13.62,veh_passenger,0.0,19404.41,25630.27
378.0,42.28,4794.33,0.31,1.85,0.08,271.74,HBEFA3/PC_G_EU4,0.0,2.06,veh3,256998522#10_0,66.54,55.87,!veh3!var#1,14.27,veh_passenger,0.0,19390.15,25630.7
379.0,0.0,0.0,0.0,0.0,0.0,271.59,HBEFA3/PC_G_EU4,0.0,0.0,veh3,256998522#10_0,62.35,69.18,!veh3!var#1,13.3,veh_passenger,0.0,19376.85,25631.07
380.0,43.24,4753.26,0.31,1.84,0.07,271.59,HBEFA3/PC_G_EU4,0.0,2.04,veh3,256998522#10_0,66.38,83.14,!veh3!var#1,13.97,veh_passenger,0.0,19362.89,25631.46
381.0,0.0,0.0,0.0,0.0,0.0,270.84,HBEFA3/PC_G_EU4,0.0,0.0,veh3,256998522#10_0,62.86,96.47,!veh3!var#1,13.32,veh_passenger,0.0,19349.57,25631.76
382.0,58.92,5580.28,0.4,2.23,0.1,270.83,HBEFA3/PC_G_EU4,0.0,2.4,veh3,256998522#10_0,67.16,110.66,!veh3!var#1,14.19,veh_passenger,0.0,19335.37,25631.97
383.0,11.87,3367.13,0.13,1.18,0.04,269.39,HBEFA3/PC_G_EU4,0.0,1.45,veh3,256998522#10_0,65.58,125.11,!veh3!var#1,14.45,veh_passenger,0.0,19320.92,25632.05
384.0,0.0,0.0,0.0,0.0,0.0,268.99,HBEFA3/PC_G_EU4,0.0,0.0,veh3,256998522#10_0,62.26,138.49,!veh3!var#1,13.37,veh_passenger,0.0,19307.55,25631.82
385.0,76.74,6522.3,0.51,2.66,0.12,260.58,HBEFA3/PC_G_EU4,0.0,2.8,veh3,:37976938_1_0,68.06,3.93,!veh3!var#1,14.47,veh_passenger,0.0,19293.24,25629.75
386.0,0.0,0.0,0.0,0.0,0.0,249.99,HBEFA3/PC_G_EU4,0.0,0.0,veh3,737329027#2_0,63.19,4.35,!veh3!var#1,13.8,veh_passenger,0.0,19280.09,25625.65
387.0,1.31,2695.97,0.07,0.87,0.02,242.95,HBEFA3/PC_G_EU4,0.0,1.16,veh3,737329027#2_0,64.81,18.24,!veh3!var#1,13.89,veh_passenger,0.0,19267.71,25619.34
388.0,0.0,0.0,0.0,0.0,0.0,231.95,HBEFA3/PC_G_EU4,0.0,0.0,veh3,:37976942_0_0,64.54,0.69,!veh3!var#1,13.88,veh_passenger,0.0,19256.69,25610.91
389.0,36.38,4559.47,0.27,1.74,0.07,233.01,HBEFA3/PC_G_EU4,0.0,1.96,veh3,737329027#5_0,66.44,0.8,!veh3!var#1,14.46,veh_passenger,0.0,19245.16,25602.19
390.0,0.0,0.0,0.0,0.0,0.0,246.08,HBEFA3/PC_G_EU4,0.0,0.0,veh3,737329027#5_0,63.02,14.52,!veh3!var#1,13.72,veh_passenger,0.0,19233.2,25595.59
391.0,27.26,4036.01,0.22,1.5,0.06,257.8,HBEFA3/PC_G_EU4,0.0,1.73,veh3,737329027#5_0,65.91,28.69,!veh3!var#1,14.17,veh_passenger,0.0,19219.65,25591.56
392.0,0.0,0.0,0.0,0.0,0.0,267.3,HBEFA3/PC_G_EU4,0.0,0.0,veh3,737329027#5_0,62.44,41.97,!veh3!var#1,13.28,veh_passenger,0.0,19206.46,25590.36
393.0,4.32,2689.11,0.08,0.88,0.02,271.85,HBEFA3/PC_G_EU4,0.0,1.16,veh3,737329027#5_0,64.49,55.36,!veh3!var#1,13.39,veh_passenger,0.0,19193.08,25590.44
394.0,76.16,6497.11,0.5,2.65,0.12,271.85,HBEFA3/PC_G_EU4,0.0,2.79,veh3,737329027#5_0,68.04,69.84,!veh3!var#1,14.48,veh_passenger,0.0,19178.61,25590.9
395.0,0.0,2429.0,0.02,0.73,0.01,271.85,HBEFA3/PC_G_EU4,0.0,1.04,veh3,737329027#5_0,65.01,84.33,!veh3!var#1,14.49,veh_passenger,0.0,19164.13,25591.37
396.0,0.0,0.0,0.0,0.0,0.0,271.85,HBEFA3/PC_G_EU4,0.0,0.0,veh3,737329027#5_0,62.92,98.02,!veh3!var#1,13.7,veh_passenger,0.0,19150.44,25591.81
397.0,17.42,3513.22,0.16,1.25,0.04,271.85,HBEFA3/PC_G_EU4,0.0,1.51,veh3,737329027#5_0,65.44,112.03,!veh3!var#1,14.01,veh_passenger,0.0,19136.43,25592.26
398.0,0.0,0.0,0.0,0.0,0.0,271.85,HBEFA3/PC_G_EU4,0.0,0.0,veh3,737329027#5_0,64.61,126.03,!veh3!var#1,14.0,veh_passenger,0.0,19122.44,25592.71
399.0,17.81,3622.29,0.16,1.3,0.04,271.85,HBEFA3/PC_G_EU4,0.0,1.56,veh3,737329027#5_0,65.69,140.37,!veh3!var#1,14.33,veh_passenger,0.0,19108.12,25593.18
400.0,0.81,2828.88,0.07,0.92,0.02,271.85,HBEFA3/PC_G_EU4,0.0,1.22,veh3,737329027#5_0,65.23,154.81,!veh3!var#1,14.45,veh_passenger,0.0,19093.68,25593.64
401.0,0.0,2515.47,0.03,0.77,0.02,271.85,HBEFA3/PC_G_EU4,0.0,1.08,veh3,737329027#5_0,65.05,169.3,!veh3!var#1,14.48,veh_passenger,0.0,19079.2,25594.11
402.0,0.0,0.0,0.0,0.0,0.0,271.85,HBEFA3/PC_G_EU4,0.0,0.0,veh3,737329027#5_0,62.82,182.94,!veh3!var#1,13.65,veh_passenger,0.0,19065.56,25594.55
403.0,16.44,3447.68,0.15,1.23,0.04,271.85,HBEFA3/PC_G_EU4,0.0,1.48,veh3,737329027#5_0,65.36,196.9,!veh3!var#1,13.95,veh_passenger,0.0,19051.62,25595.0
404.0,0.0,0.0,0.0,0.0,0.0,271.85,HBEFA3/PC_G_EU4,0.0,0.0,veh3,737329027#5_0,63.2,210.34,!veh3!var#1,13.45,veh_passenger,0.0,19038.18,25595.43
405.0,67.09,6040.27,0.45,2.44,0.11,271.85,HBEFA3/PC_G_EU4,0.0,2.6,veh3,737329027#5_0,67.62,224.76,!veh3!var#1,14.42,veh_passenger,0.0,19023.76,25595.89
406.0,0.0,0.0,0.0,0.0,0.0,271.85,HBEFA3/PC_G_EU4,0.0,0.0,veh3,737329027#5_0,63.78,238.76,!veh3!var#1,14.0,veh_passenger,0.0,19009.77,25596.35
407.0,0.0,0.0,0.0,0.0,0.0,271.85,HBEFA3/PC_G_EU4,0.0,0.0,veh3,737329027#5_0,62.65,252.03,!veh3!var#1,13.26,veh_passenger,0.0,18996.51,25596.77
408.0,0.0,0.0,0.0,0.0,0.0,271.85,HBEFA3/PC_G_EU4,0.0,0.0,veh3,737329027#5_0,58.02,262.5,!veh3!var#1,10.48,veh_passenger,0.0,18986.04,25597.11
409.0,0.0,0.0,0.0,0.0,0.0,271.85,HBEFA3/PC_G_EU4,0.0,0.0,veh3,737329027#5_0,51.93,269.06,!veh3!var#1,6.56,veh_passenger,0.0,18979.49,25597.32
410.0,90.46,4433.19,0.52,1.85,0.08,264.59,HBEFA3/PC_G_EU4,0.0,1.91,veh3,:37976954_6_0,64.53,4.03,!veh3!var#1,7.72,veh_passenger,0.0,18971.81,25596.94
411.0,58.45,3142.12,0.34,1.23,0.04,203.96,HBEFA3/PC_G_EU4,0.0,1.35,veh3,:37976954_6_0,62.21,12.24,!veh3!var#1,8.21,veh_passenger,0.0,18967.07,25590.84
412.0,0.0,0.0,0.0,0.0,0.0,181.83,HBEFA3/PC_G_EU4,0.0,0.0,veh3,5336769#14_0,56.78,5.29,!veh3!var#1,7.24,veh_passenger,0.0,18966.56,25583.63
413.0,140.51,7783.99,0.83,3.38,0.16,181.82,HBEFA3/PC_G_EU4,0.0,3.35,veh3,5336769#14_0,70.08,14.82,!veh3!var#1,9.53,veh_passenger,0.0,18966.26,25574.11
414.0,108.35,6942.76,0.66,2.94,0.14,181.82,HBEFA3/PC_G_EU4,0.0,2.98,veh3,5336769#14_0,68.26,25.99,!veh3!var#1,11.17,veh_passenger,0.0,18965.9,25562.94
415.0,99.79,7078.23,0.62,2.97,0.14,181.82,HBEFA3/PC_G_EU4,0.0,3.04,veh3,5336769#14_0,68.37,38.63,!veh3!var#1,12.64,veh_passenger,0.0,18965.5,25550.31
416.0,67.01,5806.2,0.44,2.35,0.1,181.82,HBEFA3/PC_G_EU4,0.0,2.5,veh3,5336769#14_0,67.2,52.26,!veh3!var#1,13.62,veh_passenger,0.0,18965.07,25536.69
417.0,35.9,4461.47,0.27,1.7,0.07,181.81,HBEFA3/PC_G_EU4,0.0,1.92,veh3,:38063828_0_0,66.24,1.39,!veh3!var#1,14.19,veh_passenger,0.0,18964.62,25522.51
418.0,0.0,0.0,0.0,0.0,0.0,181.79,HBEFA3/PC_G_EU4,0.0,0.0,veh3,5336769#16_0,63.74,0.8,!veh3!var#1,13.82,veh_passenger,0.0,18964.19,25508.69
419.0,8.15,3064.16,0.11,1.04,0.03,181.78,HBEFA3/PC_G_EU4,0.0,1.32,veh3,5336769#16_0,65.13,14.82,!veh3!var#1,14.02,veh_passenger,0.0,18963.75,25494.68
420.0,2.53,2827.76,0.08,0.93,0.02,181.78,HBEFA3/PC_G_EU4,0.0,1.22,veh3,5336769#16_0,65.04,28.97,!veh3!var#1,14.15,veh_passenger,0.0,18963.31,25480.54
421.0,14.22,3476.34,0.14,1.23,0.04,181.78,HBEFA3/PC_G_EU4,0.0,1.49,veh3,5336769#16_0,65.64,43.4,!veh3!var#1,14.43,veh_passenger,0.0,18962.87,25466.11
422.0,0.0,0.0,0.0,0.0,0.0,181.78,HBEFA3/PC_G_EU4,0.0,0.0,veh3,5336769#16_0,63.49,57.3,!veh3!var#1,13.9,veh_passenger,0.0,18962.43,25452.22
423.0,37.97,4645.51,0.28,1.78,0.07,183.78,HBEFA3/PC_G_EU4,0.0,2.0,veh3,:38063834_0_0,66.52,7.56,!veh3!var#1,14.49,veh_passenger,0.0,18961.72,25437.75
424.0,0.0,0.0,0.0,0.0,0.0,189.5,HBEFA3/PC_G_EU4,0.0,0.0,veh3,5336769#18_0,62.49,7.26,!veh3!var#1,13.5,veh_passenger,0.0,18960.25,25424.34
425.0,31.74,4208.85,0.24,1.58,0.06,196.88,HBEFA3/PC_G_EU4,0.0,1.81,veh3,5336769#18_0,65.97,21.27,!veh3!var#1,14.01,veh_passenger,0.0,18956.81,25410.78
426.0,0.0,0.0,0.0,0.0,0.0,205.05,HBEFA3/PC_G_EU4,0.0,0.0,veh3,5336769#18_0,58.96,32.55,!veh3!var#1,11.28,veh_passenger,0.0,18952.63,25400.33
427.0,0.0,0.0,0.0,0.0,0.0,206.15,HBEFA3/PC_G_EU4,0.0,0.0,veh3,5336769#18_0,52.29,39.39,!veh3!var#1,6.84,veh_passenger,0.0,18949.65,25394.18
428.0,0.0,0.0,0.0,0.0,0.0,215.23,HBEFA3/PC_G_EU4,0.0,0.0,veh3,:38039181_0_0,54.65,1.81,!veh3!var#1,5.66,veh_passenger,0.0,18946.42,25389.54
429.0,77.12,2862.76,0.42,1.15,0.04,270.96,HBEFA3/PC_G_EU4,0.0,1.23,veh3,:38039181_0_0,60.84,7.93,!veh3!var#1,6.12,veh_passenger,0.0,18940.9,25388.91
430.0,0.0,0.0,0.0,0.0,0.0,298.4,HBEFA3/PC_G_EU4,0.0,0.0,veh3,5334484#5_0,57.26,4.6,!veh3!var#1,5.71,veh_passenger,0.0,18935.89,25391.61
431.0,109.43,5124.67,0.62,2.19,0.1,294.29,HBEFA3/PC_G_EU4,0.0,2.2,veh3,5334484#5_0,66.08,11.91,!veh3!var#1,7.3,veh_passenger,0.0,18929.23,25394.61
432.0,103.06,5630.6,0.6,2.39,0.11,288.67,HBEFA3/PC_G_EU4,0.0,2.42,veh3,5334484#5_0,66.62,20.75,!veh3!var#1,8.84,veh_passenger,0.0,18921.01,25397.79
433.0,141.56,8504.72,0.85,3.68,0.18,285.03,HBEFA3/PC_G_EU4,0.0,3.66,veh3,5334484#5_0,70.48,31.8,!veh3!var#1,11.05,veh_passenger,0.0,18910.35,25400.69
434.0,105.12,7321.7,0.65,3.09,0.14,276.32,HBEFA3/PC_G_EU4,0.0,3.15,veh3,5334484#5_0,68.65,44.39,!veh3!var#1,12.6,veh_passenger,0.0,18897.87,25402.35
